CD_ROM_XA

// Track 1
TRACK MODE2_FORM_MIX
NO COPY
DATAFILE "TOMBRAIDER.bin" 29:13:54 // length in bytes: 307251744

// Track 2
TRACK AUDIO
NO COPY
NO PRE_EMPHASIS
TWO_CHANNEL_AUDIO
SILENCE 00:02:00
FILE "TOMBRAIDER.bin" #307251744 0 03:16:33
START 00:02:00

// Track 3
TRACK AUDIO
NO COPY
NO PRE_EMPHASIS
TWO_CHANNEL_AUDIO
FILE "TOMBRAIDER.bin" #307251744 03:16:33 01:03:64
START 00:00:10

// Track 4
TRACK AUDIO
NO COPY
NO PRE_EMPHASIS
TWO_CHANNEL_AUDIO
FILE "TOMBRAIDER.bin" #307251744 04:20:22 02:03:55
START 00:00:19

// Track 5
TRACK AUDIO
NO COPY
NO PRE_EMPHASIS
TWO_CHANNEL_AUDIO
FILE "TOMBRAIDER.bin" #307251744 06:24:02 02:00:03
START 00:00:03

// Track 6
TRACK AUDIO
NO COPY
NO PRE_EMPHASIS
TWO_CHANNEL_AUDIO
FILE "TOMBRAIDER.bin" #307251744 08:24:05 01:17:07
START 00:00:11

// Track 7
TRACK AUDIO
NO COPY
NO PRE_EMPHASIS
TWO_CHANNEL_AUDIO
FILE "TOMBRAIDER.bin" #307251744 09:41:12 00:55:45
START 00:00:03

// Track 8
TRACK AUDIO
NO COPY
NO PRE_EMPHASIS
TWO_CHANNEL_AUDIO
FILE "TOMBRAIDER.bin" #307251744 10:36:57 01:08:23
START 00:00:24

// Track 9
TRACK AUDIO
NO COPY
NO PRE_EMPHASIS
TWO_CHANNEL_AUDIO
FILE "TOMBRAIDER.bin" #307251744 11:45:05 00:40:17
START 00:00:20

// Track 10
TRACK AUDIO
NO COPY
NO PRE_EMPHASIS
TWO_CHANNEL_AUDIO
FILE "TOMBRAIDER.bin" #307251744 12:25:22 01:19:21
START 00:00:09

// Track 11
TRACK AUDIO
NO COPY
NO PRE_EMPHASIS
TWO_CHANNEL_AUDIO
FILE "TOMBRAIDER.bin" #307251744 13:44:43 00:08:44
START 00:00:09

// Track 12
TRACK AUDIO
NO COPY
NO PRE_EMPHASIS
TWO_CHANNEL_AUDIO
FILE "TOMBRAIDER.bin" #307251744 13:53:12 00:14:49
START 00:00:02

// Track 13
TRACK AUDIO
NO COPY
NO PRE_EMPHASIS
TWO_CHANNEL_AUDIO
FILE "TOMBRAIDER.bin" #307251744 14:07:61 00:07:25
START 00:00:27

// Track 14
TRACK AUDIO
NO COPY
NO PRE_EMPHASIS
TWO_CHANNEL_AUDIO
FILE "TOMBRAIDER.bin" #307251744 14:15:11 00:12:07
START 00:00:05

// Track 15
TRACK AUDIO
NO COPY
NO PRE_EMPHASIS
TWO_CHANNEL_AUDIO
FILE "TOMBRAIDER.bin" #307251744 14:27:18 00:10:70
START 00:00:03

// Track 16
TRACK AUDIO
NO COPY
NO PRE_EMPHASIS
TWO_CHANNEL_AUDIO
FILE "TOMBRAIDER.bin" #307251744 14:38:13 00:38:54
START 00:00:11

// Track 17
TRACK AUDIO
NO COPY
NO PRE_EMPHASIS
TWO_CHANNEL_AUDIO
FILE "TOMBRAIDER.bin" #307251744 15:16:67 00:43:07
START 00:00:20

// Track 18
TRACK AUDIO
NO COPY
NO PRE_EMPHASIS
TWO_CHANNEL_AUDIO
FILE "TOMBRAIDER.bin" #307251744 15:59:74 00:25:23
START 00:00:02

// Track 19
TRACK AUDIO
NO COPY
NO PRE_EMPHASIS
TWO_CHANNEL_AUDIO
FILE "TOMBRAIDER.bin" #307251744 16:25:22 01:28:28
START 00:00:03

// Track 20
TRACK AUDIO
NO COPY
NO PRE_EMPHASIS
TWO_CHANNEL_AUDIO
FILE "TOMBRAIDER.bin" #307251744 17:53:50 00:54:18
START 00:00:20

// Track 21
TRACK AUDIO
NO COPY
NO PRE_EMPHASIS
TWO_CHANNEL_AUDIO
FILE "TOMBRAIDER.bin" #307251744 18:47:68 00:41:14
START 00:00:19

// Track 22
TRACK AUDIO
NO COPY
NO PRE_EMPHASIS
TWO_CHANNEL_AUDIO
FILE "TOMBRAIDER.bin" #307251744 19:29:07 01:03:46
START 00:00:22

// Track 23
TRACK AUDIO
NO COPY
NO PRE_EMPHASIS
TWO_CHANNEL_AUDIO
FILE "TOMBRAIDER.bin" #307251744 20:32:53 00:57:32
START 00:00:14

// Track 24
TRACK AUDIO
NO COPY
NO PRE_EMPHASIS
TWO_CHANNEL_AUDIO
FILE "TOMBRAIDER.bin" #307251744 21:30:10 00:15:38
START 00:00:26

// Track 25
TRACK AUDIO
NO COPY
NO PRE_EMPHASIS
TWO_CHANNEL_AUDIO
FILE "TOMBRAIDER.bin" #307251744 21:45:48 00:37:01
START 00:00:16

// Track 26
TRACK AUDIO
NO COPY
NO PRE_EMPHASIS
TWO_CHANNEL_AUDIO
FILE "TOMBRAIDER.bin" #307251744 22:22:49 00:06:58
START 00:00:03

// Track 27
TRACK AUDIO
NO COPY
NO PRE_EMPHASIS
TWO_CHANNEL_AUDIO
FILE "TOMBRAIDER.bin" #307251744 22:29:32 00:06:71
START 00:00:21

// Track 28
TRACK AUDIO
NO COPY
NO PRE_EMPHASIS
TWO_CHANNEL_AUDIO
FILE "TOMBRAIDER.bin" #307251744 22:36:28 00:07:18
START 00:00:26

// Track 29
TRACK AUDIO
NO COPY
NO PRE_EMPHASIS
TWO_CHANNEL_AUDIO
FILE "TOMBRAIDER.bin" #307251744 22:43:46 00:06:66
START 00:00:08

// Track 30
TRACK AUDIO
NO COPY
NO PRE_EMPHASIS
TWO_CHANNEL_AUDIO
FILE "TOMBRAIDER.bin" #307251744 22:50:37 00:08:11
START 00:00:18

// Track 31
TRACK AUDIO
NO COPY
NO PRE_EMPHASIS
TWO_CHANNEL_AUDIO
FILE "TOMBRAIDER.bin" #307251744 22:58:48 00:06:64
START 00:00:05

// Track 32
TRACK AUDIO
NO COPY
NO PRE_EMPHASIS
TWO_CHANNEL_AUDIO
FILE "TOMBRAIDER.bin" #307251744 23:05:37 00:09:46
START 00:00:17

// Track 33
TRACK AUDIO
NO COPY
NO PRE_EMPHASIS
TWO_CHANNEL_AUDIO
FILE "TOMBRAIDER.bin" #307251744 23:15:08 00:09:27
START 00:00:09

// Track 34
TRACK AUDIO
NO COPY
NO PRE_EMPHASIS
TWO_CHANNEL_AUDIO
FILE "TOMBRAIDER.bin" #307251744 23:24:35 00:07:61
START 00:00:24

// Track 35
TRACK AUDIO
NO COPY
NO PRE_EMPHASIS
TWO_CHANNEL_AUDIO
FILE "TOMBRAIDER.bin" #307251744 23:32:21 00:07:17
START 00:00:10

// Track 36
TRACK AUDIO
NO COPY
NO PRE_EMPHASIS
TWO_CHANNEL_AUDIO
FILE "TOMBRAIDER.bin" #307251744 23:39:38 00:16:73
START 00:00:07

// Track 37
TRACK AUDIO
NO COPY
NO PRE_EMPHASIS
TWO_CHANNEL_AUDIO
FILE "TOMBRAIDER.bin" #307251744 23:56:36 00:06:70
START 00:00:05

// Track 38
TRACK AUDIO
NO COPY
NO PRE_EMPHASIS
TWO_CHANNEL_AUDIO
FILE "TOMBRAIDER.bin" #307251744 24:03:31 00:07:10
START 00:00:11

// Track 39
TRACK AUDIO
NO COPY
NO PRE_EMPHASIS
TWO_CHANNEL_AUDIO
FILE "TOMBRAIDER.bin" #307251744 24:10:41 00:15:65
START 00:00:02

// Track 40
TRACK AUDIO
NO COPY
NO PRE_EMPHASIS
TWO_CHANNEL_AUDIO
FILE "TOMBRAIDER.bin" #307251744 24:26:31 00:10:32
START 00:00:18

// Track 41
TRACK AUDIO
NO COPY
NO PRE_EMPHASIS
TWO_CHANNEL_AUDIO
FILE "TOMBRAIDER.bin" #307251744 24:36:63 00:07:10
START 00:00:26

// Track 42
TRACK AUDIO
NO COPY
NO PRE_EMPHASIS
TWO_CHANNEL_AUDIO
FILE "TOMBRAIDER.bin" #307251744 24:43:73 00:06:68
START 00:00:17

// Track 43
TRACK AUDIO
NO COPY
NO PRE_EMPHASIS
TWO_CHANNEL_AUDIO
FILE "TOMBRAIDER.bin" #307251744 24:50:66 00:09:22
START 00:00:24

// Track 44
TRACK AUDIO
NO COPY
NO PRE_EMPHASIS
TWO_CHANNEL_AUDIO
FILE "TOMBRAIDER.bin" #307251744 25:00:13 00:08:12
START 00:00:15

// Track 45
TRACK AUDIO
NO COPY
NO PRE_EMPHASIS
TWO_CHANNEL_AUDIO
FILE "TOMBRAIDER.bin" #307251744 25:08:25 00:10:02
START 00:00:27

// Track 46
TRACK AUDIO
NO COPY
NO PRE_EMPHASIS
TWO_CHANNEL_AUDIO
FILE "TOMBRAIDER.bin" #307251744 25:18:27 00:06:68
START 00:00:16

// Track 47
TRACK AUDIO
NO COPY
NO PRE_EMPHASIS
TWO_CHANNEL_AUDIO
FILE "TOMBRAIDER.bin" #307251744 25:25:20 00:07:18
START 00:00:24

// Track 48
TRACK AUDIO
NO COPY
NO PRE_EMPHASIS
TWO_CHANNEL_AUDIO
FILE "TOMBRAIDER.bin" #307251744 25:32:38 00:06:63
START 00:00:07

// Track 49
TRACK AUDIO
NO COPY
NO PRE_EMPHASIS
TWO_CHANNEL_AUDIO
FILE "TOMBRAIDER.bin" #307251744 25:39:26 00:15:71
START 00:00:20

// Track 50
TRACK AUDIO
NO COPY
NO PRE_EMPHASIS
TWO_CHANNEL_AUDIO
FILE "TOMBRAIDER.bin" #307251744 25:55:22 00:06:68
START 00:00:20

// Track 51
TRACK AUDIO
NO COPY
NO PRE_EMPHASIS
TWO_CHANNEL_AUDIO
FILE "TOMBRAIDER.bin" #307251744 26:02:15 00:07:15
START 00:00:27

// Track 52
TRACK AUDIO
NO COPY
NO PRE_EMPHASIS
TWO_CHANNEL_AUDIO
FILE "TOMBRAIDER.bin" #307251744 26:09:30 00:06:64
START 00:00:12

// Track 53
TRACK AUDIO
NO COPY
NO PRE_EMPHASIS
TWO_CHANNEL_AUDIO
FILE "TOMBRAIDER.bin" #307251744 26:16:19 00:09:36
START 00:00:24

// Track 54
TRACK AUDIO
NO COPY
NO PRE_EMPHASIS
TWO_CHANNEL_AUDIO
FILE "TOMBRAIDER.bin" #307251744 26:25:55 00:06:65
START 00:00:08

// Track 55
TRACK AUDIO
NO COPY
NO PRE_EMPHASIS
TWO_CHANNEL_AUDIO
FILE "TOMBRAIDER.bin" #307251744 26:32:45 00:09:53
START 00:00:19

// Track 56
TRACK AUDIO
NO COPY
NO PRE_EMPHASIS
TWO_CHANNEL_AUDIO
FILE "TOMBRAIDER.bin" #307251744 26:42:23 00:07:13
START 00:00:20

// Track 57
TRACK AUDIO
NO COPY
NO PRE_EMPHASIS
TWO_CHANNEL_AUDIO
FILE "TOMBRAIDER.bin" #307251744 26:49:36 03:17:08
START 00:00:08
