CD_ROM_XA

// Track 1
TRACK MODE2_FORM_MIX
NO COPY
DATAFILE "TOMBRAIDER.bin" 27:43:33 // length in bytes: 291434688

// Track 2
TRACK AUDIO
NO COPY
NO PRE_EMPHASIS
TWO_CHANNEL_AUDIO
SILENCE 00:02:00
FILE "TOMBRAIDER.bin" #291434688 0 03:16:20
START 00:02:00

// Track 3
TRACK AUDIO
NO COPY
NO PRE_EMPHASIS
TWO_CHANNEL_AUDIO
FILE "TOMBRAIDER.bin" #291434688 03:16:20 01:04:15
START 00:00:23

// Track 4
TRACK AUDIO
NO COPY
NO PRE_EMPHASIS
TWO_CHANNEL_AUDIO
FILE "TOMBRAIDER.bin" #291434688 04:20:35 02:03:29
START 00:00:06

// Track 5
TRACK AUDIO
NO COPY
NO PRE_EMPHASIS
TWO_CHANNEL_AUDIO
FILE "TOMBRAIDER.bin" #291434688 06:23:64 02:00:14
START 00:00:16

// Track 6
TRACK AUDIO
NO COPY
NO PRE_EMPHASIS
TWO_CHANNEL_AUDIO
FILE "TOMBRAIDER.bin" #291434688 08:24:03 01:16:71
START 00:00:13

// Track 7
TRACK AUDIO
NO COPY
NO PRE_EMPHASIS
TWO_CHANNEL_AUDIO
FILE "TOMBRAIDER.bin" #291434688 09:40:74 00:55:71
START 00:00:16

// Track 8
TRACK AUDIO
NO COPY
NO PRE_EMPHASIS
TWO_CHANNEL_AUDIO
FILE "TOMBRAIDER.bin" #291434688 10:36:70 01:08:23
START 00:00:11

// Track 9
TRACK AUDIO
NO COPY
NO PRE_EMPHASIS
TWO_CHANNEL_AUDIO
FILE "TOMBRAIDER.bin" #291434688 11:45:18 00:40:04
START 00:00:07

// Track 10
TRACK AUDIO
NO COPY
NO PRE_EMPHASIS
TWO_CHANNEL_AUDIO
FILE "TOMBRAIDER.bin" #291434688 12:25:22 01:19:08
START 00:00:09

// Track 11
TRACK AUDIO
NO COPY
NO PRE_EMPHASIS
TWO_CHANNEL_AUDIO
FILE "TOMBRAIDER.bin" #291434688 13:44:30 00:08:57
START 00:00:22

// Track 12
TRACK AUDIO
NO COPY
NO PRE_EMPHASIS
TWO_CHANNEL_AUDIO
FILE "TOMBRAIDER.bin" #291434688 13:53:12 00:14:62
START 00:00:02

// Track 13
TRACK AUDIO
NO COPY
NO PRE_EMPHASIS
TWO_CHANNEL_AUDIO
FILE "TOMBRAIDER.bin" #291434688 14:07:74 00:06:74
START 00:00:14

// Track 14
TRACK AUDIO
NO COPY
NO PRE_EMPHASIS
TWO_CHANNEL_AUDIO
FILE "TOMBRAIDER.bin" #291434688 14:14:73 00:12:07
START 00:00:18

// Track 15
TRACK AUDIO
NO COPY
NO PRE_EMPHASIS
TWO_CHANNEL_AUDIO
FILE "TOMBRAIDER.bin" #291434688 14:27:05 00:11:05
START 00:00:16

// Track 16
TRACK AUDIO
NO COPY
NO PRE_EMPHASIS
TWO_CHANNEL_AUDIO
FILE "TOMBRAIDER.bin" #291434688 14:38:10 00:38:70
START 00:00:14

// Track 17
TRACK AUDIO
NO COPY
NO PRE_EMPHASIS
TWO_CHANNEL_AUDIO
FILE "TOMBRAIDER.bin" #291434688 15:17:05 00:42:62
START 00:00:07

// Track 18
TRACK AUDIO
NO COPY
NO PRE_EMPHASIS
TWO_CHANNEL_AUDIO
FILE "TOMBRAIDER.bin" #291434688 15:59:67 00:25:23
START 00:00:09

// Track 19
TRACK AUDIO
NO COPY
NO PRE_EMPHASIS
TWO_CHANNEL_AUDIO
FILE "TOMBRAIDER.bin" #291434688 16:25:15 01:28:48
START 00:00:10

// Track 20
TRACK AUDIO
NO COPY
NO PRE_EMPHASIS
TWO_CHANNEL_AUDIO
FILE "TOMBRAIDER.bin" #291434688 17:53:63 00:54:18
START 00:00:07

// Track 21
TRACK AUDIO
NO COPY
NO PRE_EMPHASIS
TWO_CHANNEL_AUDIO
FILE "TOMBRAIDER.bin" #291434688 18:48:06 00:41:14
START 00:00:06

// Track 22
TRACK AUDIO
NO COPY
NO PRE_EMPHASIS
TWO_CHANNEL_AUDIO
FILE "TOMBRAIDER.bin" #291434688 19:29:20 01:03:30
START 00:00:09

// Track 23
TRACK AUDIO
NO COPY
NO PRE_EMPHASIS
TWO_CHANNEL_AUDIO
FILE "TOMBRAIDER.bin" #291434688 20:32:50 00:57:48
START 00:00:17

// Track 24
TRACK AUDIO
NO COPY
NO PRE_EMPHASIS
TWO_CHANNEL_AUDIO
FILE "TOMBRAIDER.bin" #291434688 21:30:23 00:15:38
START 00:00:13

// Track 25
TRACK AUDIO
NO COPY
NO PRE_EMPHASIS
TWO_CHANNEL_AUDIO
FILE "TOMBRAIDER.bin" #291434688 21:45:61 00:36:50
START 00:00:03

// Track 26
TRACK AUDIO
NO COPY
NO PRE_EMPHASIS
TWO_CHANNEL_AUDIO
FILE "TOMBRAIDER.bin" #291434688 22:22:36 00:07:09
START 00:00:16

// Track 27
TRACK AUDIO
NO COPY
NO PRE_EMPHASIS
TWO_CHANNEL_AUDIO
FILE "TOMBRAIDER.bin" #291434688 22:29:45 00:06:71
START 00:00:08

// Track 28
TRACK AUDIO
NO COPY
NO PRE_EMPHASIS
TWO_CHANNEL_AUDIO
FILE "TOMBRAIDER.bin" #291434688 22:36:41 00:06:67
START 00:00:13

// Track 29
TRACK AUDIO
NO COPY
NO PRE_EMPHASIS
TWO_CHANNEL_AUDIO
FILE "TOMBRAIDER.bin" #291434688 22:43:33 00:07:17
START 00:00:21

// Track 30
TRACK AUDIO
NO COPY
NO PRE_EMPHASIS
TWO_CHANNEL_AUDIO
FILE "TOMBRAIDER.bin" #291434688 22:50:50 00:07:73
START 00:00:05

// Track 31
TRACK AUDIO
NO COPY
NO PRE_EMPHASIS
TWO_CHANNEL_AUDIO
FILE "TOMBRAIDER.bin" #291434688 22:58:48 00:07:02
START 00:00:05

// Track 32
TRACK AUDIO
NO COPY
NO PRE_EMPHASIS
TWO_CHANNEL_AUDIO
FILE "TOMBRAIDER.bin" #291434688 23:05:50 00:09:20
START 00:00:04

// Track 33
TRACK AUDIO
NO COPY
NO PRE_EMPHASIS
TWO_CHANNEL_AUDIO
FILE "TOMBRAIDER.bin" #291434688 23:14:70 00:09:53
START 00:00:22

// Track 34
TRACK AUDIO
NO COPY
NO PRE_EMPHASIS
TWO_CHANNEL_AUDIO
FILE "TOMBRAIDER.bin" #291434688 23:24:48 00:07:35
START 00:00:11

// Track 35
TRACK AUDIO
NO COPY
NO PRE_EMPHASIS
TWO_CHANNEL_AUDIO
FILE "TOMBRAIDER.bin" #291434688 23:32:08 00:07:29
START 00:00:23

// Track 36
TRACK AUDIO
NO COPY
NO PRE_EMPHASIS
TWO_CHANNEL_AUDIO
FILE "TOMBRAIDER.bin" #291434688 23:39:37 00:16:61
START 00:00:08

// Track 37
TRACK AUDIO
NO COPY
NO PRE_EMPHASIS
TWO_CHANNEL_AUDIO
FILE "TOMBRAIDER.bin" #291434688 23:56:23 00:06:70
START 00:00:18

// Track 38
TRACK AUDIO
NO COPY
NO PRE_EMPHASIS
TWO_CHANNEL_AUDIO
FILE "TOMBRAIDER.bin" #291434688 24:03:18 00:07:16
START 00:00:24

// Track 39
TRACK AUDIO
NO COPY
NO PRE_EMPHASIS
TWO_CHANNEL_AUDIO
FILE "TOMBRAIDER.bin" #291434688 24:10:34 00:16:10
START 00:00:09

// Track 40
TRACK AUDIO
NO COPY
NO PRE_EMPHASIS
TWO_CHANNEL_AUDIO
FILE "TOMBRAIDER.bin" #291434688 24:26:44 00:10:32
START 00:00:05

// Track 41
TRACK AUDIO
NO COPY
NO PRE_EMPHASIS
TWO_CHANNEL_AUDIO
FILE "TOMBRAIDER.bin" #291434688 24:37:01 00:07:10
START 00:00:13

// Track 42
TRACK AUDIO
NO COPY
NO PRE_EMPHASIS
TWO_CHANNEL_AUDIO
FILE "TOMBRAIDER.bin" #291434688 24:44:11 00:06:68
START 00:00:04

// Track 43
TRACK AUDIO
NO COPY
NO PRE_EMPHASIS
TWO_CHANNEL_AUDIO
FILE "TOMBRAIDER.bin" #291434688 24:51:04 00:09:22
START 00:00:11

// Track 44
TRACK AUDIO
NO COPY
NO PRE_EMPHASIS
TWO_CHANNEL_AUDIO
FILE "TOMBRAIDER.bin" #291434688 25:00:26 00:08:12
START 00:00:02

// Track 45
TRACK AUDIO
NO COPY
NO PRE_EMPHASIS
TWO_CHANNEL_AUDIO
FILE "TOMBRAIDER.bin" #291434688 25:08:38 00:10:02
START 00:00:14

// Track 46
TRACK AUDIO
NO COPY
NO PRE_EMPHASIS
TWO_CHANNEL_AUDIO
FILE "TOMBRAIDER.bin" #291434688 25:18:40 00:06:68
START 00:00:03

// Track 47
TRACK AUDIO
NO COPY
NO PRE_EMPHASIS
TWO_CHANNEL_AUDIO
FILE "TOMBRAIDER.bin" #291434688 25:25:33 00:07:05
START 00:00:11

// Track 48
TRACK AUDIO
NO COPY
NO PRE_EMPHASIS
TWO_CHANNEL_AUDIO
FILE "TOMBRAIDER.bin" #291434688 25:32:38 00:07:01
START 00:00:07

// Track 49
TRACK AUDIO
NO COPY
NO PRE_EMPHASIS
TWO_CHANNEL_AUDIO
FILE "TOMBRAIDER.bin" #291434688 25:39:39 00:15:71
START 00:00:07

// Track 50
TRACK AUDIO
NO COPY
NO PRE_EMPHASIS
TWO_CHANNEL_AUDIO
FILE "TOMBRAIDER.bin" #291434688 25:55:35 00:06:68
START 00:00:07

// Track 51
TRACK AUDIO
NO COPY
NO PRE_EMPHASIS
TWO_CHANNEL_AUDIO
FILE "TOMBRAIDER.bin" #291434688 26:02:28 00:07:01
START 00:00:14

// Track 52
TRACK AUDIO
NO COPY
NO PRE_EMPHASIS
TWO_CHANNEL_AUDIO
FILE "TOMBRAIDER.bin" #291434688 26:09:29 00:07:03
START 00:00:13

// Track 53
TRACK AUDIO
NO COPY
NO PRE_EMPHASIS
TWO_CHANNEL_AUDIO
FILE "TOMBRAIDER.bin" #291434688 26:16:32 00:09:10
START 00:00:11

// Track 54
TRACK AUDIO
NO COPY
NO PRE_EMPHASIS
TWO_CHANNEL_AUDIO
FILE "TOMBRAIDER.bin" #291434688 26:25:42 00:07:16
START 00:00:21

// Track 55
TRACK AUDIO
NO COPY
NO PRE_EMPHASIS
TWO_CHANNEL_AUDIO
FILE "TOMBRAIDER.bin" #291434688 26:32:58 00:09:53
START 00:00:06

// Track 56
TRACK AUDIO
NO COPY
NO PRE_EMPHASIS
TWO_CHANNEL_AUDIO
FILE "TOMBRAIDER.bin" #291434688 26:42:36 00:06:62
START 00:00:07

// Track 57
TRACK AUDIO
NO COPY
NO PRE_EMPHASIS
TWO_CHANNEL_AUDIO
FILE "TOMBRAIDER.bin" #291434688 26:49:23 03:17:21
START 00:00:21
