File	Size	Timestamp	MD5 Hash
contents.dat	51200	1999-01-19 06:34:26 +0100  	f00639d467da9746cf7850cfc96da51b
data/assault.psx	1565974	1997-11-13 09:59:04 +0100  	6eae76379b6e04f915fc3a6122e7bac6
data/boat.psx	2014880	1997-11-13 10:01:22 +0100  	21650bd5db3d5c139b241f33d0803c21
data/catacomb.psx	1877970	1997-11-13 10:16:14 +0100  	975f3a6decaa71195d1534d7ff107aa6
data/cut1.psx	952798	1997-11-13 10:22:44 +0100  	5614ebf5b6f920a4ca587afdb29dd6da
data/cut2.psx	1098876	1997-11-13 10:23:06 +0100  	8841bdf5d8b309a29f8f8ae8f1bfb958
data/cut3.psx	1288922	1997-11-13 10:23:36 +0100  	49dd69d1cb496d5825fcc86881a6052f
data/cut4.psx	1116966	1997-11-13 10:23:58 +0100  	a64c06bd7649acfbf5e8a1fd32134b86
data/deck.psx	1968084	1997-11-13 10:12:34 +0100  	958ce085b1d3e0d7655e40a7adad1f3a
data/emprtomb.psx	2101594	1997-11-13 10:18:50 +0100  	105e69c85972f72de38f5ca5ea8671fb
data/floating.psx	2078690	1997-11-13 10:20:08 +0100  	78e633bac433c9feafa3db5aae6563b5
data/house.psx	1886728	1997-11-13 10:22:22 +0100  	1246393f910d4c2c3010e575658854de
data/icecave.psx	1987854	1997-11-13 10:17:30 +0100  	f9da2b214310891d4296165c74dd48c7
data/keel.psx	2014110	1997-11-13 10:09:56 +0100  	88ba5b3a02731377ca82b30668723a0d
data/living.psx	1808444	1997-11-13 10:11:12 +0100  	940fe46646373fedef7560ee13cb35e6
data/monastry.psx	2120772	1997-11-13 10:15:04 +0100  	27fc9b089fb31de8a589593c06e13aa0
data/opera.psx	2060882	1997-11-13 10:04:10 +0100  	a7cbe5b3d807139d1999b7b2ced996a5
data/platform.psx	1993070	1997-11-13 10:07:22 +0100  	ff2cd0ad24754670c95807c7485f7420
data/playable.psx	2010678	1997-10-23 04:37:56 +0200  	46cde602e7e7dae53c8dc8fabaedadc2
data/rig.psx	1950216	1997-11-13 10:05:46 +0100  	6c222186b770af9f30580653e952caae
data/skidoo.psx	1981902	1997-11-13 10:13:42 +0100  	3343943d581b275c2cb52f6507dc41d2
data/title.psx	148744	1997-11-13 09:58:10 +0100  	baf06458adf7ab2835cdc51a23fd6d39
data/tombpsx.dat	6701	1997-10-28 05:14:50 +0100  	9cbdbb0711d33c848fe5c9b2959c75b6
data/unwater.psx	1784200	1997-11-13 10:08:28 +0100  	e3bb383a480ab25b532c8ac556a3cdba
data/venice.psx	2081402	1997-11-13 10:02:42 +0100  	670360b41c805635a241f1fc27f4169f
data/wall.psx	1661622	1997-11-13 10:00:04 +0100  	d9c5b0e859e79276a00aaeea0663c647
data/xian.psx	1748838	1997-11-13 10:21:18 +0100  	be36f081d996d2ea752caa3826263004
dummy.fil	33554432	1998-10-23 12:50:32 +0200  	58f06dd588d8ffb3beb46ada6309436b
fmv/ancient.fmv	44810240	1997-09-22 07:46:56 +0200  	###### Input/Output Error ######
fmv/crash.fmv	31342592	1997-10-04 15:38:16 +0200  	###### Input/Output Error ######
fmv/end.fmv	12664832	1997-10-04 13:29:30 +0200  	###### Input/Output Error ######
fmv/jeep.fmv	38008832	1997-09-22 06:39:38 +0200  	###### Input/Output Error ######
fmv/landing.fmv	7487488	1997-10-03 12:31:06 +0200  	###### Input/Output Error ######
fmv/logo.fmv	9027584	1997-09-11 10:58:52 +0200  	###### Input/Output Error ######
fmv/modern.fmv	6455296	1997-09-22 07:48:34 +0200  	###### Input/Output Error ######
fmv/ms.fmv	20283392	1997-09-22 07:48:04 +0200  	###### Input/Output Error ######
kain2/bigfile.dat	15108096	1999-07-07 04:39:36 +0200  	6124d407c6dab0844f4c72cc05db0c2c
kain2/locals.tbl	3532	1999-07-07 04:39:50 +0200  	a8120da87804fc12fcb8fd7c09c6cf60
kain2/ntsc.exe	798720	1999-07-07 08:09:46 +0200  	169297b44c8182da3c470a8afcf90b55
launch.exe	24576	1998-02-11 05:52:22 +0100  	51e40e1d08ad5c519e36c6df66aeac02
main.exe	512000	1998-12-17 11:18:44 +0100  	3fce406ddbc93b676283ce053120c02b
menu.ff	1536000	1998-02-16 05:25:10 +0100  	6fb16d216aacdad85a43ee80a0eb5ef6
pix/assault.raw	2648	1997-09-18 09:29:12 +0200  	b34d49ed1984f91e32ad2d9e5ea3930d
pix/boat.raw	2648	1997-09-18 09:29:12 +0200  	b34d49ed1984f91e32ad2d9e5ea3930d
pix/bull.raw	44513	1997-09-22 05:26:46 +0200  	4e631332148510b8962b700d5621411c
pix/catacomb.raw	2648	1997-09-18 09:29:12 +0200  	b34d49ed1984f91e32ad2d9e5ea3930d
pix/china.raw	55551	1997-10-07 12:22:06 +0200  	00bc20f876cabb4b50d9bf029664ce70
pix/credit01.raw	19703	1997-10-10 16:59:46 +0200  	54926bdab84c985cc4e761bf8a5a5788
pix/credit02.raw	24836	1997-10-10 16:59:54 +0200  	7eb60258705fd863a4350be20062c415
pix/credit03.raw	18283	1997-10-10 17:00:00 +0200  	53ffed9c189a06ed55382735f45194f1
pix/credit04.raw	19108	1997-10-10 17:00:04 +0200  	29973f2347ca9b0b71efdf260d582304
pix/credit05.raw	22492	1997-10-10 17:00:10 +0200  	e40e3625b7703cb80972911b39421ea2
pix/credit06.raw	23775	1997-10-10 17:00:16 +0200  	be1635db7fb0eecea872d9839f17f0bb
pix/credit07.raw	21570	1997-10-10 17:00:22 +0200  	22363fce8163dac0e2694e8e6ec6d557
pix/credit08.raw	19469	1997-10-10 17:00:30 +0200  	dd6c58a30291acdfb1f2ba8058116c00
pix/credit09.raw	2918	1997-10-10 17:00:36 +0200  	332fac211c91180500ea110489e231e8
pix/deck.raw	2648	1997-09-18 09:29:12 +0200  	b34d49ed1984f91e32ad2d9e5ea3930d
pix/emprtomb.raw	2648	1997-09-18 09:29:12 +0200  	b34d49ed1984f91e32ad2d9e5ea3930d
pix/floating.raw	2648	1997-09-18 09:29:12 +0200  	b34d49ed1984f91e32ad2d9e5ea3930d
pix/house.raw	2648	1997-09-18 09:29:12 +0200  	b34d49ed1984f91e32ad2d9e5ea3930d
pix/icecave.raw	2648	1997-09-18 09:29:12 +0200  	b34d49ed1984f91e32ad2d9e5ea3930d
pix/keel.raw	2648	1997-09-18 09:29:12 +0200  	b34d49ed1984f91e32ad2d9e5ea3930d
pix/living.raw	2648	1997-09-18 09:29:12 +0200  	b34d49ed1984f91e32ad2d9e5ea3930d
pix/mansion.raw	70039	1997-10-09 18:32:34 +0200  	0507e862c5909ca4071910c9bf127eb6
pix/monastry.raw	2648	1997-09-18 09:29:12 +0200  	b34d49ed1984f91e32ad2d9e5ea3930d
pix/opera.raw	2648	1997-09-18 09:29:12 +0200  	b34d49ed1984f91e32ad2d9e5ea3930d
pix/platform.raw	2648	1997-09-18 09:29:12 +0200  	b34d49ed1984f91e32ad2d9e5ea3930d
pix/rig.raw	63098	1997-10-07 12:24:24 +0200  	ed3ebcceb23d7edd4d4a4f9d029bb6d8
pix/skidoo.raw	2648	1997-09-18 09:29:12 +0200  	b34d49ed1984f91e32ad2d9e5ea3930d
pix/tibet.raw	67241	1997-10-07 12:24:40 +0200  	e1cf34019830177c8fc35890a0723934
pix/titan.raw	25498	1997-10-07 12:24:50 +0200  	b56c9a83f2944ba0749110263510056b
pix/title.raw	44513	1997-09-22 05:26:46 +0200  	4e631332148510b8962b700d5621411c
pix/unwater.raw	2648	1997-09-18 09:29:12 +0200  	b34d49ed1984f91e32ad2d9e5ea3930d
pixus/legalus.raw	28341	1997-10-07 12:23:00 +0200  	13a836eab379bbcde52c0fdafad95ac5
pixus/titleus.raw	87374	1997-10-07 12:25:20 +0200  	dd0c8a0599e2f99c6e0fd21611caf8b7
pix/venice.raw	70345	1997-10-07 12:25:50 +0200  	7f4440855dfffbce7a2473e7618c24a7
pix/wall.raw	2648	1997-09-18 09:29:12 +0200  	b34d49ed1984f91e32ad2d9e5ea3930d
pix/warning.raw	27048	1997-09-16 08:01:28 +0200  	07f57a9d8a3f4983d2b8afa1a49d98b7
pix/xian.raw	2648	1997-09-18 09:29:12 +0200  	b34d49ed1984f91e32ad2d9e5ea3930d
psx.exe	24576	1998-02-11 05:27:32 +0100  	96bb8e4e1aaf8410e6eb145a3e598949
slus_004.37	24576	1998-02-11 05:27:32 +0100  	96bb8e4e1aaf8410e6eb145a3e598949
system.cnf	68	1997-10-14 20:06:48 +0200  	88b414a9ac289adae9e243847e996d53
tomb2.exe	501760	1997-11-13 15:02:56 +0100  	7a6252b3c7bcdbdd2bfb97bfee6387ad
tomb3/area51.psx	1823461	1998-09-14 16:42:42 +0200  	1627349d4570ee1626fb5ec2216cabf4
tomb3/data/tombpsx.dat	3139	1998-09-14 16:43:14 +0200  	84d0b4ce25716bfdcc314627a42bdad7
tomb3/demo1.psx	1710009	1998-09-14 16:43:12 +0200  	4822d70a4abb7e817d6bc954073a34c8
tomb3/legal.raw	42527	1998-08-25 09:22:18 +0200  	5554b5d4925da2c61e4cd35cc9e4cf45
tomb3/main.exe	585728	1998-09-14 16:43:16 +0200  	933069d78d5b972528df576135782691
