CD_ROM

// Track 1
TRACK MODE1
NO COPY
DATAFILE "1997-12-11-16-53-01-31.bin" 25:26:33 // length in bytes: 234461184

// Track 2
TRACK AUDIO
NO COPY
NO PRE_EMPHASIS
TWO_CHANNEL_AUDIO
SILENCE 00:02:00
FILE "1997-12-11-16-53-01-31.bin" #234461184 0 01:27:34
START 00:02:00

// Track 3
TRACK AUDIO
NO COPY
NO PRE_EMPHASIS
TWO_CHANNEL_AUDIO
FILE "1997-12-11-16-53-01-31.bin" #234461184 01:27:34 01:56:24

// Track 4
TRACK AUDIO
NO COPY
NO PRE_EMPHASIS
TWO_CHANNEL_AUDIO
FILE "1997-12-11-16-53-01-31.bin" #234461184 03:23:58 02:17:60

// Track 5
TRACK AUDIO
NO COPY
NO PRE_EMPHASIS
TWO_CHANNEL_AUDIO
FILE "1997-12-11-16-53-01-31.bin" #234461184 05:41:43 00:09:59

// Track 6
TRACK AUDIO
NO COPY
NO PRE_EMPHASIS
TWO_CHANNEL_AUDIO
FILE "1997-12-11-16-53-01-31.bin" #234461184 05:51:27 00:08:71

// Track 7
TRACK AUDIO
NO COPY
NO PRE_EMPHASIS
TWO_CHANNEL_AUDIO
FILE "1997-12-11-16-53-01-31.bin" #234461184 06:00:23 00:07:00

// Track 8
TRACK AUDIO
NO COPY
NO PRE_EMPHASIS
TWO_CHANNEL_AUDIO
FILE "1997-12-11-16-53-01-31.bin" #234461184 06:07:23 00:07:02

// Track 9
TRACK AUDIO
NO COPY
NO PRE_EMPHASIS
TWO_CHANNEL_AUDIO
FILE "1997-12-11-16-53-01-31.bin" #234461184 06:14:25 00:07:74

// Track 10
TRACK AUDIO
NO COPY
NO PRE_EMPHASIS
TWO_CHANNEL_AUDIO
FILE "1997-12-11-16-53-01-31.bin" #234461184 06:22:24 00:13:24

// Track 11
TRACK AUDIO
NO COPY
NO PRE_EMPHASIS
TWO_CHANNEL_AUDIO
FILE "1997-12-11-16-53-01-31.bin" #234461184 06:35:48 00:17:59

// Track 12
TRACK AUDIO
NO COPY
NO PRE_EMPHASIS
TWO_CHANNEL_AUDIO
FILE "1997-12-11-16-53-01-31.bin" #234461184 06:53:32 00:10:37

// Track 13
TRACK AUDIO
NO COPY
NO PRE_EMPHASIS
TWO_CHANNEL_AUDIO
FILE "1997-12-11-16-53-01-31.bin" #234461184 07:03:69 00:11:08

// Track 14
TRACK AUDIO
NO COPY
NO PRE_EMPHASIS
TWO_CHANNEL_AUDIO
FILE "1997-12-11-16-53-01-31.bin" #234461184 07:15:02 00:07:00

// Track 15
TRACK AUDIO
NO COPY
NO PRE_EMPHASIS
TWO_CHANNEL_AUDIO
FILE "1997-12-11-16-53-01-31.bin" #234461184 07:22:02 00:07:00

// Track 16
TRACK AUDIO
NO COPY
NO PRE_EMPHASIS
TWO_CHANNEL_AUDIO
FILE "1997-12-11-16-53-01-31.bin" #234461184 07:29:02 00:07:01

// Track 17
TRACK AUDIO
NO COPY
NO PRE_EMPHASIS
TWO_CHANNEL_AUDIO
FILE "1997-12-11-16-53-01-31.bin" #234461184 07:36:03 00:11:02

// Track 18
TRACK AUDIO
NO COPY
NO PRE_EMPHASIS
TWO_CHANNEL_AUDIO
FILE "1997-12-11-16-53-01-31.bin" #234461184 07:47:05 00:07:00

// Track 19
TRACK AUDIO
NO COPY
NO PRE_EMPHASIS
TWO_CHANNEL_AUDIO
FILE "1997-12-11-16-53-01-31.bin" #234461184 07:54:05 00:07:00

// Track 20
TRACK AUDIO
NO COPY
NO PRE_EMPHASIS
TWO_CHANNEL_AUDIO
FILE "1997-12-11-16-53-01-31.bin" #234461184 08:01:05 00:07:00

// Track 21
TRACK AUDIO
NO COPY
NO PRE_EMPHASIS
TWO_CHANNEL_AUDIO
FILE "1997-12-11-16-53-01-31.bin" #234461184 08:08:05 00:07:00

// Track 22
TRACK AUDIO
NO COPY
NO PRE_EMPHASIS
TWO_CHANNEL_AUDIO
FILE "1997-12-11-16-53-01-31.bin" #234461184 08:15:05 00:07:00

// Track 23
TRACK AUDIO
NO COPY
NO PRE_EMPHASIS
TWO_CHANNEL_AUDIO
FILE "1997-12-11-16-53-01-31.bin" #234461184 08:22:05 00:18:49

// Track 24
TRACK AUDIO
NO COPY
NO PRE_EMPHASIS
TWO_CHANNEL_AUDIO
FILE "1997-12-11-16-53-01-31.bin" #234461184 08:40:54 00:11:00

// Track 25
TRACK AUDIO
NO COPY
NO PRE_EMPHASIS
TWO_CHANNEL_AUDIO
FILE "1997-12-11-16-53-01-31.bin" #234461184 08:51:54 00:07:00

// Track 26
TRACK AUDIO
NO COPY
NO PRE_EMPHASIS
TWO_CHANNEL_AUDIO
FILE "1997-12-11-16-53-01-31.bin" #234461184 08:58:54 00:53:65

// Track 27
TRACK AUDIO
NO COPY
NO PRE_EMPHASIS
TWO_CHANNEL_AUDIO
FILE "1997-12-11-16-53-01-31.bin" #234461184 09:52:44 02:00:11

// Track 28
TRACK AUDIO
NO COPY
NO PRE_EMPHASIS
TWO_CHANNEL_AUDIO
FILE "1997-12-11-16-53-01-31.bin" #234461184 11:52:55 01:59:58

// Track 29
TRACK AUDIO
NO COPY
NO PRE_EMPHASIS
TWO_CHANNEL_AUDIO
FILE "1997-12-11-16-53-01-31.bin" #234461184 13:52:38 02:48:33

// Track 30
TRACK AUDIO
NO COPY
NO PRE_EMPHASIS
TWO_CHANNEL_AUDIO
FILE "1997-12-11-16-53-01-31.bin" #234461184 16:40:71 03:05:59

// Track 31
TRACK AUDIO
NO COPY
NO PRE_EMPHASIS
TWO_CHANNEL_AUDIO
FILE "1997-12-11-16-53-01-31.bin" #234461184 19:46:55 00:09:57

// Track 32
TRACK AUDIO
NO COPY
NO PRE_EMPHASIS
TWO_CHANNEL_AUDIO
FILE "1997-12-11-16-53-01-31.bin" #234461184 19:56:37 00:06:47

// Track 33
TRACK AUDIO
NO COPY
NO PRE_EMPHASIS
TWO_CHANNEL_AUDIO
FILE "1997-12-11-16-53-01-31.bin" #234461184 20:03:09 00:18:35

// Track 34
TRACK AUDIO
NO COPY
NO PRE_EMPHASIS
TWO_CHANNEL_AUDIO
FILE "1997-12-11-16-53-01-31.bin" #234461184 20:21:44 00:56:33

// Track 35
TRACK AUDIO
NO COPY
NO PRE_EMPHASIS
TWO_CHANNEL_AUDIO
FILE "1997-12-11-16-53-01-31.bin" #234461184 21:18:02 00:21:66

// Track 36
TRACK AUDIO
NO COPY
NO PRE_EMPHASIS
TWO_CHANNEL_AUDIO
FILE "1997-12-11-16-53-01-31.bin" #234461184 21:39:68 02:40:69

// Track 37
TRACK AUDIO
NO COPY
NO PRE_EMPHASIS
TWO_CHANNEL_AUDIO
FILE "1997-12-11-16-53-01-31.bin" #234461184 24:20:62 00:14:13

// Track 38
TRACK AUDIO
NO COPY
NO PRE_EMPHASIS
TWO_CHANNEL_AUDIO
FILE "1997-12-11-16-53-01-31.bin" #234461184 24:35:00 00:13:32

// Track 39
TRACK AUDIO
NO COPY
NO PRE_EMPHASIS
TWO_CHANNEL_AUDIO
FILE "1997-12-11-16-53-01-31.bin" #234461184 24:48:32 00:16:63

// Track 40
TRACK AUDIO
NO COPY
NO PRE_EMPHASIS
TWO_CHANNEL_AUDIO
FILE "1997-12-11-16-53-01-31.bin" #234461184 25:05:20 00:19:62

// Track 41
TRACK AUDIO
NO COPY
NO PRE_EMPHASIS
TWO_CHANNEL_AUDIO
FILE "1997-12-11-16-53-01-31.bin" #234461184 25:25:07 01:01:05

// Track 42
TRACK AUDIO
NO COPY
NO PRE_EMPHASIS
TWO_CHANNEL_AUDIO
FILE "1997-12-11-16-53-01-31.bin" #234461184 26:26:12 00:35:29

// Track 43
TRACK AUDIO
NO COPY
NO PRE_EMPHASIS
TWO_CHANNEL_AUDIO
FILE "1997-12-11-16-53-01-31.bin" #234461184 27:01:41 00:06:28

// Track 44
TRACK AUDIO
NO COPY
NO PRE_EMPHASIS
TWO_CHANNEL_AUDIO
FILE "1997-12-11-16-53-01-31.bin" #234461184 27:07:69 00:15:73

// Track 45
TRACK AUDIO
NO COPY
NO PRE_EMPHASIS
TWO_CHANNEL_AUDIO
FILE "1997-12-11-16-53-01-31.bin" #234461184 27:23:67 00:11:72

// Track 46
TRACK AUDIO
NO COPY
NO PRE_EMPHASIS
TWO_CHANNEL_AUDIO
FILE "1997-12-11-16-53-01-31.bin" #234461184 27:35:64 00:14:26

// Track 47
TRACK AUDIO
NO COPY
NO PRE_EMPHASIS
TWO_CHANNEL_AUDIO
FILE "1997-12-11-16-53-01-31.bin" #234461184 27:50:15 00:10:32

// Track 48
TRACK AUDIO
NO COPY
NO PRE_EMPHASIS
TWO_CHANNEL_AUDIO
FILE "1997-12-11-16-53-01-31.bin" #234461184 28:00:47 02:45:07

// Track 49
TRACK AUDIO
NO COPY
NO PRE_EMPHASIS
TWO_CHANNEL_AUDIO
FILE "1997-12-11-16-53-01-31.bin" #234461184 30:45:54 01:13:24

// Track 50
TRACK AUDIO
NO COPY
NO PRE_EMPHASIS
TWO_CHANNEL_AUDIO
FILE "1997-12-11-16-53-01-31.bin" #234461184 31:59:03 00:09:46

// Track 51
TRACK AUDIO
NO COPY
NO PRE_EMPHASIS
TWO_CHANNEL_AUDIO
FILE "1997-12-11-16-53-01-31.bin" #234461184 32:08:49 00:44:07

// Track 52
TRACK AUDIO
NO COPY
NO PRE_EMPHASIS
TWO_CHANNEL_AUDIO
FILE "1997-12-11-16-53-01-31.bin" #234461184 32:52:56 00:11:60

// Track 53
TRACK AUDIO
NO COPY
NO PRE_EMPHASIS
TWO_CHANNEL_AUDIO
FILE "1997-12-11-16-53-01-31.bin" #234461184 33:04:41 00:51:06

// Track 54
TRACK AUDIO
NO COPY
NO PRE_EMPHASIS
TWO_CHANNEL_AUDIO
FILE "1997-12-11-16-53-01-31.bin" #234461184 33:55:47 03:31:44

// Track 55
TRACK AUDIO
NO COPY
NO PRE_EMPHASIS
TWO_CHANNEL_AUDIO
FILE "1997-12-11-16-53-01-31.bin" #234461184 37:27:16 03:31:56

// Track 56
TRACK AUDIO
NO COPY
NO PRE_EMPHASIS
TWO_CHANNEL_AUDIO
FILE "1997-12-11-16-53-01-31.bin" #234461184 40:58:72 01:47:52

// Track 57
TRACK AUDIO
NO COPY
NO PRE_EMPHASIS
TWO_CHANNEL_AUDIO
FILE "1997-12-11-16-53-01-31.bin" #234461184 42:46:49 00:25:45

// Track 58
TRACK AUDIO
NO COPY
NO PRE_EMPHASIS
TWO_CHANNEL_AUDIO
FILE "1997-12-11-16-53-01-31.bin" #234461184 43:12:19 00:23:48

// Track 59
TRACK AUDIO
NO COPY
NO PRE_EMPHASIS
TWO_CHANNEL_AUDIO
FILE "1997-12-11-16-53-01-31.bin" #234461184 43:35:67 00:19:54

// Track 60
TRACK AUDIO
NO COPY
NO PRE_EMPHASIS
TWO_CHANNEL_AUDIO
FILE "1997-12-11-16-53-01-31.bin" #234461184 43:55:46 02:48:47

// Track 61
TRACK AUDIO
NO COPY
NO PRE_EMPHASIS
TWO_CHANNEL_AUDIO
FILE "1997-12-11-16-53-01-31.bin" #234461184 46:44:18 00:07:00
