CD_ROM_XA

// Track 1
TRACK MODE2_FORM_MIX
NO COPY
DATAFILE "TOMB_RAIDER_2.bin" 31:58:00 // length in bytes: 336033600

// Track 2
TRACK AUDIO
NO COPY
NO PRE_EMPHASIS
TWO_CHANNEL_AUDIO
SILENCE 00:02:00
FILE "TOMB_RAIDER_2.bin" #336033600 0 01:27:24
START 00:02:00

// Track 3
TRACK AUDIO
NO COPY
NO PRE_EMPHASIS
TWO_CHANNEL_AUDIO
FILE "TOMB_RAIDER_2.bin" #336033600 01:27:24 01:56:31
START 00:00:10

// Track 4
TRACK AUDIO
NO COPY
NO PRE_EMPHASIS
TWO_CHANNEL_AUDIO
FILE "TOMB_RAIDER_2.bin" #336033600 03:23:55 02:17:39
START 00:00:04

// Track 5
TRACK AUDIO
NO COPY
NO PRE_EMPHASIS
TWO_CHANNEL_AUDIO
FILE "TOMB_RAIDER_2.bin" #336033600 05:41:19 00:09:64
START 00:00:25

// Track 6
TRACK AUDIO
NO COPY
NO PRE_EMPHASIS
TWO_CHANNEL_AUDIO
FILE "TOMB_RAIDER_2.bin" #336033600 05:51:08 00:09:16
START 00:00:21

// Track 7
TRACK AUDIO
NO COPY
NO PRE_EMPHASIS
TWO_CHANNEL_AUDIO
FILE "TOMB_RAIDER_2.bin" #336033600 06:00:24 00:06:66
START 00:00:02

// Track 8
TRACK AUDIO
NO COPY
NO PRE_EMPHASIS
TWO_CHANNEL_AUDIO
FILE "TOMB_RAIDER_2.bin" #336033600 06:07:15 00:06:66
START 00:00:12

// Track 9
TRACK AUDIO
NO COPY
NO PRE_EMPHASIS
TWO_CHANNEL_AUDIO
FILE "TOMB_RAIDER_2.bin" #336033600 06:14:06 00:08:14
START 00:00:23

// Track 10
TRACK AUDIO
NO COPY
NO PRE_EMPHASIS
TWO_CHANNEL_AUDIO
FILE "TOMB_RAIDER_2.bin" #336033600 06:22:20 00:13:27
START 00:00:09

// Track 11
TRACK AUDIO
NO COPY
NO PRE_EMPHASIS
TWO_CHANNEL_AUDIO
FILE "TOMB_RAIDER_2.bin" #336033600 06:35:47 00:17:54
START 00:00:06

// Track 12
TRACK AUDIO
NO COPY
NO PRE_EMPHASIS
TWO_CHANNEL_AUDIO
FILE "TOMB_RAIDER_2.bin" #336033600 06:53:26 00:10:36
START 00:00:12

// Track 13
TRACK AUDIO
NO COPY
NO PRE_EMPHASIS
TWO_CHANNEL_AUDIO
FILE "TOMB_RAIDER_2.bin" #336033600 07:03:62 00:11:00
START 00:00:14

// Track 14
TRACK AUDIO
NO COPY
NO PRE_EMPHASIS
TWO_CHANNEL_AUDIO
FILE "TOMB_RAIDER_2.bin" #336033600 07:14:62 00:07:20
START 00:00:23

// Track 15
TRACK AUDIO
NO COPY
NO PRE_EMPHASIS
TWO_CHANNEL_AUDIO
FILE "TOMB_RAIDER_2.bin" #336033600 07:22:07 00:06:65
START 00:00:04

// Track 16
TRACK AUDIO
NO COPY
NO PRE_EMPHASIS
TWO_CHANNEL_AUDIO
FILE "TOMB_RAIDER_2.bin" #336033600 07:28:72 00:06:66
START 00:00:15

// Track 17
TRACK AUDIO
NO COPY
NO PRE_EMPHASIS
TWO_CHANNEL_AUDIO
FILE "TOMB_RAIDER_2.bin" #336033600 07:35:63 00:11:19
START 00:00:26

// Track 18
TRACK AUDIO
NO COPY
NO PRE_EMPHASIS
TWO_CHANNEL_AUDIO
FILE "TOMB_RAIDER_2.bin" #336033600 07:47:07 00:06:70
START 00:00:09

// Track 19
TRACK AUDIO
NO COPY
NO PRE_EMPHASIS
TWO_CHANNEL_AUDIO
FILE "TOMB_RAIDER_2.bin" #336033600 07:54:02 00:06:70
START 00:00:15

// Track 20
TRACK AUDIO
NO COPY
NO PRE_EMPHASIS
TWO_CHANNEL_AUDIO
FILE "TOMB_RAIDER_2.bin" #336033600 08:00:72 00:07:17
START 00:00:21

// Track 21
TRACK AUDIO
NO COPY
NO PRE_EMPHASIS
TWO_CHANNEL_AUDIO
FILE "TOMB_RAIDER_2.bin" #336033600 08:08:14 00:06:64
START 00:00:05

// Track 22
TRACK AUDIO
NO COPY
NO PRE_EMPHASIS
TWO_CHANNEL_AUDIO
FILE "TOMB_RAIDER_2.bin" #336033600 08:15:03 00:07:09
START 00:00:17

// Track 23
TRACK AUDIO
NO COPY
NO PRE_EMPHASIS
TWO_CHANNEL_AUDIO
FILE "TOMB_RAIDER_2.bin" #336033600 08:22:12 00:18:40
START 00:00:09

// Track 24
TRACK AUDIO
NO COPY
NO PRE_EMPHASIS
TWO_CHANNEL_AUDIO
FILE "TOMB_RAIDER_2.bin" #336033600 08:40:52 00:11:01
START 00:00:18

// Track 25
TRACK AUDIO
NO COPY
NO PRE_EMPHASIS
TWO_CHANNEL_AUDIO
FILE "TOMB_RAIDER_2.bin" #336033600 08:51:53 00:07:05
START 00:00:18

// Track 26
TRACK AUDIO
NO COPY
NO PRE_EMPHASIS
TWO_CHANNEL_AUDIO
FILE "TOMB_RAIDER_2.bin" #336033600 08:58:58 00:53:72
START 00:00:14

// Track 27
TRACK AUDIO
NO COPY
NO PRE_EMPHASIS
TWO_CHANNEL_AUDIO
FILE "TOMB_RAIDER_2.bin" #336033600 09:52:55 01:01:47
START 00:00:07

// Track 28
TRACK AUDIO
NO COPY
NO PRE_EMPHASIS
TWO_CHANNEL_AUDIO
FILE "TOMB_RAIDER_2.bin" #336033600 10:54:27 01:23:14
START 00:00:21

// Track 29
TRACK AUDIO
NO COPY
NO PRE_EMPHASIS
TWO_CHANNEL_AUDIO
FILE "TOMB_RAIDER_2.bin" #336033600 12:17:41 01:08:34
START 00:00:07

// Track 30
TRACK AUDIO
NO COPY
NO PRE_EMPHASIS
TWO_CHANNEL_AUDIO
FILE "TOMB_RAIDER_2.bin" #336033600 13:26:00 01:35:65
START 00:00:04

// Track 31
TRACK AUDIO
NO COPY
NO PRE_EMPHASIS
TWO_CHANNEL_AUDIO
FILE "TOMB_RAIDER_2.bin" #336033600 15:01:65 00:09:57
START 00:00:06

// Track 32
TRACK AUDIO
NO COPY
NO PRE_EMPHASIS
TWO_CHANNEL_AUDIO
FILE "TOMB_RAIDER_2.bin" #336033600 15:11:47 00:06:31
START 00:00:06

// Track 33
TRACK AUDIO
NO COPY
NO PRE_EMPHASIS
TWO_CHANNEL_AUDIO
FILE "TOMB_RAIDER_2.bin" #336033600 15:18:03 00:18:51
START 00:00:23

// Track 34
TRACK AUDIO
NO COPY
NO PRE_EMPHASIS
TWO_CHANNEL_AUDIO
FILE "TOMB_RAIDER_2.bin" #336033600 15:36:54 00:56:30
START 00:00:07

// Track 35
TRACK AUDIO
NO COPY
NO PRE_EMPHASIS
TWO_CHANNEL_AUDIO
FILE "TOMB_RAIDER_2.bin" #336033600 16:33:09 00:21:59
START 00:00:11

// Track 36
TRACK AUDIO
NO COPY
NO PRE_EMPHASIS
TWO_CHANNEL_AUDIO
FILE "TOMB_RAIDER_2.bin" #336033600 16:54:68 02:41:07
START 00:00:18

// Track 37
TRACK AUDIO
NO COPY
NO PRE_EMPHASIS
TWO_CHANNEL_AUDIO
FILE "TOMB_RAIDER_2.bin" #336033600 19:36:00 00:14:06
START 00:00:05

// Track 38
TRACK AUDIO
NO COPY
NO PRE_EMPHASIS
TWO_CHANNEL_AUDIO
FILE "TOMB_RAIDER_2.bin" #336033600 19:50:06 00:13:31
START 00:00:12

// Track 39
TRACK AUDIO
NO COPY
NO PRE_EMPHASIS
TWO_CHANNEL_AUDIO
FILE "TOMB_RAIDER_2.bin" #336033600 20:03:37 00:16:64
START 00:00:13

// Track 40
TRACK AUDIO
NO COPY
NO PRE_EMPHASIS
TWO_CHANNEL_AUDIO
FILE "TOMB_RAIDER_2.bin" #336033600 20:20:26 00:19:70
START 00:00:12

// Track 41
TRACK AUDIO
NO COPY
NO PRE_EMPHASIS
TWO_CHANNEL_AUDIO
FILE "TOMB_RAIDER_2.bin" #336033600 20:40:21 01:01:08
START 00:00:05

// Track 42
TRACK AUDIO
NO COPY
NO PRE_EMPHASIS
TWO_CHANNEL_AUDIO
FILE "TOMB_RAIDER_2.bin" #336033600 21:41:29 00:35:29
START 00:00:03

// Track 43
TRACK AUDIO
NO COPY
NO PRE_EMPHASIS
TWO_CHANNEL_AUDIO
FILE "TOMB_RAIDER_2.bin" #336033600 22:16:58 00:06:18
START 00:00:04

// Track 44
TRACK AUDIO
NO COPY
NO PRE_EMPHASIS
TWO_CHANNEL_AUDIO
FILE "TOMB_RAIDER_2.bin" #336033600 22:23:01 00:16:08
START 00:00:15

// Track 45
TRACK AUDIO
NO COPY
NO PRE_EMPHASIS
TWO_CHANNEL_AUDIO
FILE "TOMB_RAIDER_2.bin" #336033600 22:39:09 00:11:62
START 00:00:06

// Track 46
TRACK AUDIO
NO COPY
NO PRE_EMPHASIS
TWO_CHANNEL_AUDIO
FILE "TOMB_RAIDER_2.bin" #336033600 22:50:71 00:14:40
START 00:00:17

// Track 47
TRACK AUDIO
NO COPY
NO PRE_EMPHASIS
TWO_CHANNEL_AUDIO
FILE "TOMB_RAIDER_2.bin" #336033600 23:05:36 00:10:33
START 00:00:04

// Track 48
TRACK AUDIO
NO COPY
NO PRE_EMPHASIS
TWO_CHANNEL_AUDIO
FILE "TOMB_RAIDER_2.bin" #336033600 23:15:69 02:44:71
START 00:00:04

// Track 49
TRACK AUDIO
NO COPY
NO PRE_EMPHASIS
TWO_CHANNEL_AUDIO
FILE "TOMB_RAIDER_2.bin" #336033600 26:00:65 01:13:39
START 00:00:16

// Track 50
TRACK AUDIO
NO COPY
NO PRE_EMPHASIS
TWO_CHANNEL_AUDIO
FILE "TOMB_RAIDER_2.bin" #336033600 27:14:29 00:09:38
START 00:00:02

// Track 51
TRACK AUDIO
NO COPY
NO PRE_EMPHASIS
TWO_CHANNEL_AUDIO
FILE "TOMB_RAIDER_2.bin" #336033600 27:23:67 00:44:08
START 00:00:11

// Track 52
TRACK AUDIO
NO COPY
NO PRE_EMPHASIS
TWO_CHANNEL_AUDIO
FILE "TOMB_RAIDER_2.bin" #336033600 28:08:00 00:11:68
START 00:00:11

// Track 53
TRACK AUDIO
NO COPY
NO PRE_EMPHASIS
TWO_CHANNEL_AUDIO
FILE "TOMB_RAIDER_2.bin" #336033600 28:19:68 00:51:05
START 00:00:03

// Track 54
TRACK AUDIO
NO COPY
NO PRE_EMPHASIS
TWO_CHANNEL_AUDIO
FILE "TOMB_RAIDER_2.bin" #336033600 29:10:73 01:12:64
START 00:00:04

// Track 55
TRACK AUDIO
NO COPY
NO PRE_EMPHASIS
TWO_CHANNEL_AUDIO
FILE "TOMB_RAIDER_2.bin" #336033600 30:23:62 02:20:59
START 00:00:06

// Track 56
TRACK AUDIO
NO COPY
NO PRE_EMPHASIS
TWO_CHANNEL_AUDIO
FILE "TOMB_RAIDER_2.bin" #336033600 32:44:46 01:47:62
START 00:00:14

// Track 57
TRACK AUDIO
NO COPY
NO PRE_EMPHASIS
TWO_CHANNEL_AUDIO
FILE "TOMB_RAIDER_2.bin" #336033600 34:32:33 00:25:45
START 00:00:05

// Track 58
TRACK AUDIO
NO COPY
NO PRE_EMPHASIS
TWO_CHANNEL_AUDIO
FILE "TOMB_RAIDER_2.bin" #336033600 34:58:03 00:23:28
START 00:00:05

// Track 59
TRACK AUDIO
NO COPY
NO PRE_EMPHASIS
TWO_CHANNEL_AUDIO
FILE "TOMB_RAIDER_2.bin" #336033600 35:21:31 00:19:72
START 00:00:26

// Track 60
TRACK AUDIO
NO COPY
NO PRE_EMPHASIS
TWO_CHANNEL_AUDIO
FILE "TOMB_RAIDER_2.bin" #336033600 35:41:28 02:48:41
START 00:00:08

// Track 61
TRACK AUDIO
NO COPY
NO PRE_EMPHASIS
TWO_CHANNEL_AUDIO
FILE "TOMB_RAIDER_2.bin" #336033600 38:29:69 00:17:68
START 00:00:14
