CD_ROM_XA

// Track 1
TRACK MODE2_FORM_MIX
NO COPY
DATAFILE "TOMB2ENG.bin" 23:06:17 // length in bytes: 242866912

// Track 2
TRACK AUDIO
NO COPY
NO PRE_EMPHASIS
TWO_CHANNEL_AUDIO
SILENCE 00:02:00
FILE "TOMB2ENG.bin" #242866912 0 01:27:29
START 00:02:00

// Track 3
TRACK AUDIO
NO COPY
NO PRE_EMPHASIS
TWO_CHANNEL_AUDIO
FILE "TOMB2ENG.bin" #242866912 01:27:29 01:56:17
START 00:00:05

// Track 4
TRACK AUDIO
NO COPY
NO PRE_EMPHASIS
TWO_CHANNEL_AUDIO
FILE "TOMB2ENG.bin" #242866912 03:23:46 02:17:53
START 00:00:13

// Track 5
TRACK AUDIO
NO COPY
NO PRE_EMPHASIS
TWO_CHANNEL_AUDIO
FILE "TOMB2ENG.bin" #242866912 05:41:24 00:09:64
START 00:00:20

// Track 6
TRACK AUDIO
NO COPY
NO PRE_EMPHASIS
TWO_CHANNEL_AUDIO
FILE "TOMB2ENG.bin" #242866912 05:51:13 00:08:65
START 00:00:16

// Track 7
TRACK AUDIO
NO COPY
NO PRE_EMPHASIS
TWO_CHANNEL_AUDIO
FILE "TOMB2ENG.bin" #242866912 06:00:03 00:07:17
START 00:00:23

// Track 8
TRACK AUDIO
NO COPY
NO PRE_EMPHASIS
TWO_CHANNEL_AUDIO
FILE "TOMB2ENG.bin" #242866912 06:07:20 00:06:66
START 00:00:07

// Track 9
TRACK AUDIO
NO COPY
NO PRE_EMPHASIS
TWO_CHANNEL_AUDIO
FILE "TOMB2ENG.bin" #242866912 06:14:11 00:08:14
START 00:00:18

// Track 10
TRACK AUDIO
NO COPY
NO PRE_EMPHASIS
TWO_CHANNEL_AUDIO
FILE "TOMB2ENG.bin" #242866912 06:22:25 00:13:01
START 00:00:04

// Track 11
TRACK AUDIO
NO COPY
NO PRE_EMPHASIS
TWO_CHANNEL_AUDIO
FILE "TOMB2ENG.bin" #242866912 06:35:26 00:18:05
START 00:00:27

// Track 12
TRACK AUDIO
NO COPY
NO PRE_EMPHASIS
TWO_CHANNEL_AUDIO
FILE "TOMB2ENG.bin" #242866912 06:53:31 00:10:36
START 00:00:07

// Track 13
TRACK AUDIO
NO COPY
NO PRE_EMPHASIS
TWO_CHANNEL_AUDIO
FILE "TOMB2ENG.bin" #242866912 07:03:67 00:11:00
START 00:00:09

// Track 14
TRACK AUDIO
NO COPY
NO PRE_EMPHASIS
TWO_CHANNEL_AUDIO
FILE "TOMB2ENG.bin" #242866912 07:14:67 00:06:69
START 00:00:18

// Track 15
TRACK AUDIO
NO COPY
NO PRE_EMPHASIS
TWO_CHANNEL_AUDIO
FILE "TOMB2ENG.bin" #242866912 07:21:61 00:07:16
START 00:00:25

// Track 16
TRACK AUDIO
NO COPY
NO PRE_EMPHASIS
TWO_CHANNEL_AUDIO
FILE "TOMB2ENG.bin" #242866912 07:29:02 00:06:66
START 00:00:10

// Track 17
TRACK AUDIO
NO COPY
NO PRE_EMPHASIS
TWO_CHANNEL_AUDIO
FILE "TOMB2ENG.bin" #242866912 07:35:68 00:11:19
START 00:00:21

// Track 18
TRACK AUDIO
NO COPY
NO PRE_EMPHASIS
TWO_CHANNEL_AUDIO
FILE "TOMB2ENG.bin" #242866912 07:47:12 00:06:70
START 00:00:04

// Track 19
TRACK AUDIO
NO COPY
NO PRE_EMPHASIS
TWO_CHANNEL_AUDIO
FILE "TOMB2ENG.bin" #242866912 07:54:07 00:06:70
START 00:00:10

// Track 20
TRACK AUDIO
NO COPY
NO PRE_EMPHASIS
TWO_CHANNEL_AUDIO
FILE "TOMB2ENG.bin" #242866912 08:01:02 00:07:03
START 00:00:16

// Track 21
TRACK AUDIO
NO COPY
NO PRE_EMPHASIS
TWO_CHANNEL_AUDIO
FILE "TOMB2ENG.bin" #242866912 08:08:05 00:07:03
START 00:00:14

// Track 22
TRACK AUDIO
NO COPY
NO PRE_EMPHASIS
TWO_CHANNEL_AUDIO
FILE "TOMB2ENG.bin" #242866912 08:15:08 00:07:09
START 00:00:12

// Track 23
TRACK AUDIO
NO COPY
NO PRE_EMPHASIS
TWO_CHANNEL_AUDIO
FILE "TOMB2ENG.bin" #242866912 08:22:17 00:18:40
START 00:00:04

// Track 24
TRACK AUDIO
NO COPY
NO PRE_EMPHASIS
TWO_CHANNEL_AUDIO
FILE "TOMB2ENG.bin" #242866912 08:40:57 00:11:01
START 00:00:13

// Track 25
TRACK AUDIO
NO COPY
NO PRE_EMPHASIS
TWO_CHANNEL_AUDIO
FILE "TOMB2ENG.bin" #242866912 08:51:58 00:07:05
START 00:00:13

// Track 26
TRACK AUDIO
NO COPY
NO PRE_EMPHASIS
TWO_CHANNEL_AUDIO
FILE "TOMB2ENG.bin" #242866912 08:58:63 00:53:72
START 00:00:09

// Track 27
TRACK AUDIO
NO COPY
NO PRE_EMPHASIS
TWO_CHANNEL_AUDIO
FILE "TOMB2ENG.bin" #242866912 09:52:60 01:59:63
START 00:00:02

// Track 28
TRACK AUDIO
NO COPY
NO PRE_EMPHASIS
TWO_CHANNEL_AUDIO
FILE "TOMB2ENG.bin" #242866912 11:52:48 01:59:74
START 00:00:25

// Track 29
TRACK AUDIO
NO COPY
NO PRE_EMPHASIS
TWO_CHANNEL_AUDIO
FILE "TOMB2ENG.bin" #242866912 13:52:47 02:48:33
START 00:00:09

// Track 30
TRACK AUDIO
NO COPY
NO PRE_EMPHASIS
TWO_CHANNEL_AUDIO
FILE "TOMB2ENG.bin" #242866912 16:41:05 03:05:60
START 00:00:10

// Track 31
TRACK AUDIO
NO COPY
NO PRE_EMPHASIS
TWO_CHANNEL_AUDIO
FILE "TOMB2ENG.bin" #242866912 19:46:65 00:09:59
START 00:00:10

// Track 32
TRACK AUDIO
NO COPY
NO PRE_EMPHASIS
TWO_CHANNEL_AUDIO
FILE "TOMB2ENG.bin" #242866912 19:56:49 00:06:48
START 00:00:08

// Track 33
TRACK AUDIO
NO COPY
NO PRE_EMPHASIS
TWO_CHANNEL_AUDIO
FILE "TOMB2ENG.bin" #242866912 20:03:22 00:18:18
START 00:00:08

// Track 34
TRACK AUDIO
NO COPY
NO PRE_EMPHASIS
TWO_CHANNEL_AUDIO
FILE "TOMB2ENG.bin" #242866912 20:21:40 00:56:56
START 00:00:25

// Track 35
TRACK AUDIO
NO COPY
NO PRE_EMPHASIS
TWO_CHANNEL_AUDIO
FILE "TOMB2ENG.bin" #242866912 21:18:21 00:21:47
START 00:00:03

// Track 36
TRACK AUDIO
NO COPY
NO PRE_EMPHASIS
TWO_CHANNEL_AUDIO
FILE "TOMB2ENG.bin" #242866912 21:39:68 02:41:12
START 00:00:22

// Track 37
TRACK AUDIO
NO COPY
NO PRE_EMPHASIS
TWO_CHANNEL_AUDIO
FILE "TOMB2ENG.bin" #242866912 24:21:05 00:14:01
START 00:00:04

// Track 38
TRACK AUDIO
NO COPY
NO PRE_EMPHASIS
TWO_CHANNEL_AUDIO
FILE "TOMB2ENG.bin" #242866912 24:35:06 00:13:43
START 00:00:16

// Track 39
TRACK AUDIO
NO COPY
NO PRE_EMPHASIS
TWO_CHANNEL_AUDIO
FILE "TOMB2ENG.bin" #242866912 24:48:49 00:16:51
START 00:00:05

// Track 40
TRACK AUDIO
NO COPY
NO PRE_EMPHASIS
TWO_CHANNEL_AUDIO
FILE "TOMB2ENG.bin" #242866912 25:05:25 00:19:74
START 00:00:17

// Track 41
TRACK AUDIO
NO COPY
NO PRE_EMPHASIS
TWO_CHANNEL_AUDIO
FILE "TOMB2ENG.bin" #242866912 25:25:24 01:01:06
START 00:00:06

// Track 42
TRACK AUDIO
NO COPY
NO PRE_EMPHASIS
TWO_CHANNEL_AUDIO
FILE "TOMB2ENG.bin" #242866912 26:26:30 00:35:28
START 00:00:06

// Track 43
TRACK AUDIO
NO COPY
NO PRE_EMPHASIS
TWO_CHANNEL_AUDIO
FILE "TOMB2ENG.bin" #242866912 27:01:58 00:06:16
START 00:00:08

// Track 44
TRACK AUDIO
NO COPY
NO PRE_EMPHASIS
TWO_CHANNEL_AUDIO
FILE "TOMB2ENG.bin" #242866912 27:07:74 00:16:15
START 00:00:21

// Track 45
TRACK AUDIO
NO COPY
NO PRE_EMPHASIS
TWO_CHANNEL_AUDIO
FILE "TOMB2ENG.bin" #242866912 27:24:14 00:11:68
START 00:00:05

// Track 46
TRACK AUDIO
NO COPY
NO PRE_EMPHASIS
TWO_CHANNEL_AUDIO
FILE "TOMB2ENG.bin" #242866912 27:36:07 00:14:29
START 00:00:10

// Track 47
TRACK AUDIO
NO COPY
NO PRE_EMPHASIS
TWO_CHANNEL_AUDIO
FILE "TOMB2ENG.bin" #242866912 27:50:36 00:10:32
START 00:00:08

// Track 48
TRACK AUDIO
NO COPY
NO PRE_EMPHASIS
TWO_CHANNEL_AUDIO
FILE "TOMB2ENG.bin" #242866912 28:00:68 02:45:03
START 00:00:09

// Track 49
TRACK AUDIO
NO COPY
NO PRE_EMPHASIS
TWO_CHANNEL_AUDIO
FILE "TOMB2ENG.bin" #242866912 30:45:71 01:13:18
START 00:00:14

// Track 50
TRACK AUDIO
NO COPY
NO PRE_EMPHASIS
TWO_CHANNEL_AUDIO
FILE "TOMB2ENG.bin" #242866912 31:59:14 00:09:64
START 00:00:21

// Track 51
TRACK AUDIO
NO COPY
NO PRE_EMPHASIS
TWO_CHANNEL_AUDIO
FILE "TOMB2ENG.bin" #242866912 32:09:03 00:43:66
START 00:00:04

// Track 52
TRACK AUDIO
NO COPY
NO PRE_EMPHASIS
TWO_CHANNEL_AUDIO
FILE "TOMB2ENG.bin" #242866912 32:52:69 00:11:71
START 00:00:21

// Track 53
TRACK AUDIO
NO COPY
NO PRE_EMPHASIS
TWO_CHANNEL_AUDIO
FILE "TOMB2ENG.bin" #242866912 33:04:65 00:51:00
START 00:00:10

// Track 54
TRACK AUDIO
NO COPY
NO PRE_EMPHASIS
TWO_CHANNEL_AUDIO
FILE "TOMB2ENG.bin" #242866912 33:55:65 03:31:56
START 00:00:16

// Track 55
TRACK AUDIO
NO COPY
NO PRE_EMPHASIS
TWO_CHANNEL_AUDIO
FILE "TOMB2ENG.bin" #242866912 37:27:46 03:31:56
START 00:00:04

// Track 56
TRACK AUDIO
NO COPY
NO PRE_EMPHASIS
TWO_CHANNEL_AUDIO
FILE "TOMB2ENG.bin" #242866912 40:59:27 01:47:48
START 00:00:05

// Track 57
TRACK AUDIO
NO COPY
NO PRE_EMPHASIS
TWO_CHANNEL_AUDIO
FILE "TOMB2ENG.bin" #242866912 42:47:00 00:25:39
START 00:00:10

// Track 58
TRACK AUDIO
NO COPY
NO PRE_EMPHASIS
TWO_CHANNEL_AUDIO
FILE "TOMB2ENG.bin" #242866912 43:12:39 00:23:44
START 00:00:16

// Track 59
TRACK AUDIO
NO COPY
NO PRE_EMPHASIS
TWO_CHANNEL_AUDIO
FILE "TOMB2ENG.bin" #242866912 43:36:08 00:19:72
START 00:00:21

// Track 60
TRACK AUDIO
NO COPY
NO PRE_EMPHASIS
TWO_CHANNEL_AUDIO
FILE "TOMB2ENG.bin" #242866912 43:56:05 02:48:32
START 00:00:03

// Track 61
TRACK AUDIO
NO COPY
NO PRE_EMPHASIS
TWO_CHANNEL_AUDIO
FILE "TOMB2ENG.bin" #242866912 46:44:37 00:17:72
START 00:00:18
