File	Size	Timestamp	MD5 Hash
data/assault.psx	1565878	1997-11-02 08:39:30 +0100	104e0068e1a27c8bce3cb97e2d32c130
data/boat.psx	2014832	1997-10-25 08:42:46 +0200	c20f22eabc209cef49774c61b48d0d62
data/catacomb.psx	1877922	1997-10-25 08:52:30 +0200	7ba4ca5de612eeedc151966f917243c5
data/cut1.psx	949772	1997-10-25 08:56:54 +0200	a834905b43374883281a5110a327bf33
data/cut2.psx	1095850	1997-10-25 08:57:08 +0200	95a0558d2c798a9a415ba7328ad9018b
data/cut3.psx	1285896	1997-10-25 08:57:26 +0200	28769ac066b6bc34addb8a09171e1b0c
data/cut4.psx	1081172	1997-10-25 08:57:40 +0200	4edb3aa82db40980623dd6ab97ea974d
data/deck.psx	1968072	1997-11-07 07:40:28 +0100	2aee5c815329dc8079f8453055beef1c
data/emprtomb.psx	2101546	1997-11-07 10:28:10 +0100	b6237800091c7c281a4a181d8e8429e7
data/floating.psx	2078552	1997-11-07 10:05:02 +0100	d32cceecb68b00b546ea4fe5094bc000
data/house.psx	1857384	1997-10-25 08:56:40 +0200	1f39bf5043b939de74d115a9e5336be9
data/icecave.psx	1987790	1997-10-25 08:53:24 +0200	d2c639fd063dd2c08c415e5adb2f47ba
data/keel.psx	2015610	1997-10-28 04:37:42 +0100	5d21ebeb32ede7c16b92dfe813e0ec28
data/living.psx	1810104	1997-10-27 03:18:28 +0100	90c9d1252e455dc2042ee7b75a491249
data/monastry.psx	2120528	1997-10-28 04:39:16 +0100	fcf8ba9a8fa052fd9d04b1a393be8168
data/opera.psx	2060678	1997-10-25 08:44:38 +0200	08c7d4c45098daad7060eadb8e10017a
data/platform.psx	1993022	1997-10-25 08:46:42 +0200	314ec6e4de02f2cb261925dff2c87893
data/rig.psx	1950168	1997-10-25 08:45:34 +0200	0b904dac72cc2110ece461979fc35738
data/skidoo.psx	1981814	1997-10-28 04:34:20 +0100	63a4c50d6f029bc2d5b38d5fcf5024a8
data/title.psx	148696	1997-10-25 08:40:34 +0200	1e9b148ce72969886a839ca1596f46d8
data/tombpsx.dat	6701	1997-10-28 05:14:50 +0100	9cbdbb0711d33c848fe5c9b2959c75b6
data/unwater.psx	1785712	1997-10-25 08:47:24 +0200	044d4b5e3d6c333ab51aa246e5f07005
data/venice.psx	2081462	1997-11-05 11:32:26 +0100	13e442b5b406d5e3e97d08d32c0e304c
data/wall.psx	1661574	1997-10-25 08:41:54 +0200	81cd42171b7438af692bf09fd4374fb4
data/xian.psx	1748790	1997-10-25 08:55:58 +0200	863d3ff209c64d6fde6b6b4e0ac24000
eng/pal.sym	39093	1997-11-07 07:07:18 +0100	###### Input/Output Error ######
eng/sles_007.18	503808	1997-11-07 07:10:14 +0100	###### Input/Output Error ######
eng/system.cnf	67	1997-10-13 04:58:52 +0200	53553242d57214aaa5726a09b05fe7bc
eng/warning.raw	27048	1997-09-16 08:01:28 +0200	###### Input/Output Error ######
fmv/ancient.fmv	44810240	1997-09-22 07:46:56 +0200	###### Input/Output Error ######
fmv/crash.fmv	31342592	1997-10-04 15:38:16 +0200	###### Input/Output Error ######
fmv/end.fmv	12664832	1997-10-04 13:29:30 +0200	###### Input/Output Error ######
fmv/jeep.fmv	38008832	1997-09-22 06:39:38 +0200	###### Input/Output Error ######
fmv/landing.fmv	7487488	1997-10-03 12:31:06 +0200	###### Input/Output Error ######
fmv/logo.fmv	9027584	1997-09-11 10:58:52 +0200	###### Input/Output Error ######
fmv/modern.fmv	6455296	1997-09-22 07:48:34 +0200	###### Input/Output Error ######
fmv/ms.fmv	20283392	1997-09-22 07:48:04 +0200	###### Input/Output Error ######
fmv/victor.fmv	2312640	1997-10-08 05:03:18 +0200	###### Input/Output Error ######
pix/china.raw	55551	1997-10-07 12:22:06 +0200	00bc20f876cabb4b50d9bf029664ce70
pix/credit01.raw	19703	1997-10-10 16:59:46 +0200	54926bdab84c985cc4e761bf8a5a5788
pix/credit02.raw	24836	1997-10-10 16:59:54 +0200	7eb60258705fd863a4350be20062c415
pix/credit03.raw	18283	1997-10-10 17:00:00 +0200	53ffed9c189a06ed55382735f45194f1
pix/credit04.raw	19108	1997-10-10 17:00:04 +0200	29973f2347ca9b0b71efdf260d582304
pix/credit05.raw	22492	1997-10-10 17:00:10 +0200	e40e3625b7703cb80972911b39421ea2
pix/credit06.raw	23775	1997-10-10 17:00:16 +0200	be1635db7fb0eecea872d9839f17f0bb
pix/credit07.raw	21570	1997-10-10 17:00:22 +0200	22363fce8163dac0e2694e8e6ec6d557
pix/credit08.raw	19469	1997-10-10 17:00:30 +0200	dd6c58a30291acdfb1f2ba8058116c00
pix/credit09.raw	2918	1997-10-10 17:00:36 +0200	332fac211c91180500ea110489e231e8
pix/mansion.raw	70039	1997-10-09 18:32:34 +0200	0507e862c5909ca4071910c9bf127eb6
pix/rig.raw	63098	1997-10-07 12:24:24 +0200	ed3ebcceb23d7edd4d4a4f9d029bb6d8
pix/tibet.raw	67241	1997-10-07 12:24:40 +0200	e1cf34019830177c8fc35890a0723934
pix/titan.raw	25498	1997-10-07 12:24:50 +0200	b56c9a83f2944ba0749110263510056b
pixuk/legal.raw	40362	1997-10-07 12:22:50 +0200	aa1c4b60e42b04ad212a189bd2391f6d
pixuk/title.raw	85734	1997-10-07 12:25:08 +0200	7c1086f2355d62391538743810640098
pix/venice.raw	70345	1997-10-07 12:25:50 +0200	7f4440855dfffbce7a2473e7618c24a7
pix/warning.raw	27048	1997-09-16 08:01:28 +0200	07f57a9d8a3f4983d2b8afa1a49d98b7
sles_007.18	503808	1997-11-07 07:10:14 +0100	2a2b7836b4cab8fdcde600cd25d2401e
system.cnf	67	1997-10-13 04:58:52 +0200	3c1911184af3f7a714c6464246ff8d53
warning.raw	27048	1997-09-16 08:01:28 +0200	07f57a9d8a3f4983d2b8afa1a49d98b7
