CD_ROM_XA

// Track 1
TRACK MODE2_FORM_MIX
NO COPY
DATAFILE "TOMBRAIDER.bin" 27:42:65 // length in bytes: 291334240

// Track 2
TRACK AUDIO
NO COPY
NO PRE_EMPHASIS
TWO_CHANNEL_AUDIO
SILENCE 00:02:00
FILE "TOMBRAIDER.bin" #291334240 0 03:16:35
START 00:02:00

// Track 3
TRACK AUDIO
NO COPY
NO PRE_EMPHASIS
TWO_CHANNEL_AUDIO
FILE "TOMBRAIDER.bin" #291334240 03:16:35 01:03:64
START 00:00:08

// Track 4
TRACK AUDIO
NO COPY
NO PRE_EMPHASIS
TWO_CHANNEL_AUDIO
FILE "TOMBRAIDER.bin" #291334240 04:20:24 02:03:29
START 00:00:17

// Track 5
TRACK AUDIO
NO COPY
NO PRE_EMPHASIS
TWO_CHANNEL_AUDIO
FILE "TOMBRAIDER.bin" #291334240 06:23:53 02:00:29
START 00:00:27

// Track 6
TRACK AUDIO
NO COPY
NO PRE_EMPHASIS
TWO_CHANNEL_AUDIO
FILE "TOMBRAIDER.bin" #291334240 08:24:07 01:16:56
START 00:00:09

// Track 7
TRACK AUDIO
NO COPY
NO PRE_EMPHASIS
TWO_CHANNEL_AUDIO
FILE "TOMBRAIDER.bin" #291334240 09:40:63 00:55:71
START 00:00:27

// Track 8
TRACK AUDIO
NO COPY
NO PRE_EMPHASIS
TWO_CHANNEL_AUDIO
FILE "TOMBRAIDER.bin" #291334240 10:36:59 01:08:23
START 00:00:22

// Track 9
TRACK AUDIO
NO COPY
NO PRE_EMPHASIS
TWO_CHANNEL_AUDIO
FILE "TOMBRAIDER.bin" #291334240 11:45:07 00:40:17
START 00:00:18

// Track 10
TRACK AUDIO
NO COPY
NO PRE_EMPHASIS
TWO_CHANNEL_AUDIO
FILE "TOMBRAIDER.bin" #291334240 12:25:24 01:19:21
START 00:00:07

// Track 11
TRACK AUDIO
NO COPY
NO PRE_EMPHASIS
TWO_CHANNEL_AUDIO
FILE "TOMBRAIDER.bin" #291334240 13:44:45 00:08:31
START 00:00:07

// Track 12
TRACK AUDIO
NO COPY
NO PRE_EMPHASIS
TWO_CHANNEL_AUDIO
FILE "TOMBRAIDER.bin" #291334240 13:53:01 00:14:62
START 00:00:13

// Track 13
TRACK AUDIO
NO COPY
NO PRE_EMPHASIS
TWO_CHANNEL_AUDIO
FILE "TOMBRAIDER.bin" #291334240 14:07:63 00:07:25
START 00:00:25

// Track 14
TRACK AUDIO
NO COPY
NO PRE_EMPHASIS
TWO_CHANNEL_AUDIO
FILE "TOMBRAIDER.bin" #291334240 14:15:13 00:11:56
START 00:00:03

// Track 15
TRACK AUDIO
NO COPY
NO PRE_EMPHASIS
TWO_CHANNEL_AUDIO
FILE "TOMBRAIDER.bin" #291334240 14:26:69 00:11:21
START 00:00:27

// Track 16
TRACK AUDIO
NO COPY
NO PRE_EMPHASIS
TWO_CHANNEL_AUDIO
FILE "TOMBRAIDER.bin" #291334240 14:38:15 00:38:54
START 00:00:09

// Track 17
TRACK AUDIO
NO COPY
NO PRE_EMPHASIS
TWO_CHANNEL_AUDIO
FILE "TOMBRAIDER.bin" #291334240 15:16:69 00:42:62
START 00:00:18

// Track 18
TRACK AUDIO
NO COPY
NO PRE_EMPHASIS
TWO_CHANNEL_AUDIO
FILE "TOMBRAIDER.bin" #291334240 15:59:56 00:25:23
START 00:00:20

// Track 19
TRACK AUDIO
NO COPY
NO PRE_EMPHASIS
TWO_CHANNEL_AUDIO
FILE "TOMBRAIDER.bin" #291334240 16:25:04 01:28:48
START 00:00:21

// Track 20
TRACK AUDIO
NO COPY
NO PRE_EMPHASIS
TWO_CHANNEL_AUDIO
FILE "TOMBRAIDER.bin" #291334240 17:53:52 00:54:18
START 00:00:18

// Track 21
TRACK AUDIO
NO COPY
NO PRE_EMPHASIS
TWO_CHANNEL_AUDIO
FILE "TOMBRAIDER.bin" #291334240 18:47:70 00:41:14
START 00:00:17

// Track 22
TRACK AUDIO
NO COPY
NO PRE_EMPHASIS
TWO_CHANNEL_AUDIO
FILE "TOMBRAIDER.bin" #291334240 19:29:09 01:03:46
START 00:00:20

// Track 23
TRACK AUDIO
NO COPY
NO PRE_EMPHASIS
TWO_CHANNEL_AUDIO
FILE "TOMBRAIDER.bin" #291334240 20:32:55 00:57:32
START 00:00:12

// Track 24
TRACK AUDIO
NO COPY
NO PRE_EMPHASIS
TWO_CHANNEL_AUDIO
FILE "TOMBRAIDER.bin" #291334240 21:30:12 00:15:38
START 00:00:24

// Track 25
TRACK AUDIO
NO COPY
NO PRE_EMPHASIS
TWO_CHANNEL_AUDIO
FILE "TOMBRAIDER.bin" #291334240 21:45:50 00:36:50
START 00:00:14

// Track 26
TRACK AUDIO
NO COPY
NO PRE_EMPHASIS
TWO_CHANNEL_AUDIO
FILE "TOMBRAIDER.bin" #291334240 22:22:25 00:07:09
START 00:00:27

// Track 27
TRACK AUDIO
NO COPY
NO PRE_EMPHASIS
TWO_CHANNEL_AUDIO
FILE "TOMBRAIDER.bin" #291334240 22:29:34 00:06:71
START 00:00:19

// Track 28
TRACK AUDIO
NO COPY
NO PRE_EMPHASIS
TWO_CHANNEL_AUDIO
FILE "TOMBRAIDER.bin" #291334240 22:36:30 00:07:18
START 00:00:24

// Track 29
TRACK AUDIO
NO COPY
NO PRE_EMPHASIS
TWO_CHANNEL_AUDIO
FILE "TOMBRAIDER.bin" #291334240 22:43:48 00:06:66
START 00:00:06

// Track 30
TRACK AUDIO
NO COPY
NO PRE_EMPHASIS
TWO_CHANNEL_AUDIO
FILE "TOMBRAIDER.bin" #291334240 22:50:39 00:08:11
START 00:00:16

// Track 31
TRACK AUDIO
NO COPY
NO PRE_EMPHASIS
TWO_CHANNEL_AUDIO
FILE "TOMBRAIDER.bin" #291334240 22:58:50 00:06:64
START 00:00:03

// Track 32
TRACK AUDIO
NO COPY
NO PRE_EMPHASIS
TWO_CHANNEL_AUDIO
FILE "TOMBRAIDER.bin" #291334240 23:05:39 00:09:46
START 00:00:15

// Track 33
TRACK AUDIO
NO COPY
NO PRE_EMPHASIS
TWO_CHANNEL_AUDIO
FILE "TOMBRAIDER.bin" #291334240 23:15:10 00:09:27
START 00:00:07

// Track 34
TRACK AUDIO
NO COPY
NO PRE_EMPHASIS
TWO_CHANNEL_AUDIO
FILE "TOMBRAIDER.bin" #291334240 23:24:37 00:07:61
START 00:00:22

// Track 35
TRACK AUDIO
NO COPY
NO PRE_EMPHASIS
TWO_CHANNEL_AUDIO
FILE "TOMBRAIDER.bin" #291334240 23:32:23 00:07:17
START 00:00:08

// Track 36
TRACK AUDIO
NO COPY
NO PRE_EMPHASIS
TWO_CHANNEL_AUDIO
FILE "TOMBRAIDER.bin" #291334240 23:39:40 00:16:73
START 00:00:05

// Track 37
TRACK AUDIO
NO COPY
NO PRE_EMPHASIS
TWO_CHANNEL_AUDIO
FILE "TOMBRAIDER.bin" #291334240 23:56:38 00:06:70
START 00:00:03

// Track 38
TRACK AUDIO
NO COPY
NO PRE_EMPHASIS
TWO_CHANNEL_AUDIO
FILE "TOMBRAIDER.bin" #291334240 24:03:33 00:06:65
START 00:00:09

// Track 39
TRACK AUDIO
NO COPY
NO PRE_EMPHASIS
TWO_CHANNEL_AUDIO
FILE "TOMBRAIDER.bin" #291334240 24:10:23 00:16:10
START 00:00:20

// Track 40
TRACK AUDIO
NO COPY
NO PRE_EMPHASIS
TWO_CHANNEL_AUDIO
FILE "TOMBRAIDER.bin" #291334240 24:26:33 00:10:32
START 00:00:16

// Track 41
TRACK AUDIO
NO COPY
NO PRE_EMPHASIS
TWO_CHANNEL_AUDIO
FILE "TOMBRAIDER.bin" #291334240 24:36:65 00:07:10
START 00:00:24

// Track 42
TRACK AUDIO
NO COPY
NO PRE_EMPHASIS
TWO_CHANNEL_AUDIO
FILE "TOMBRAIDER.bin" #291334240 24:44:00 00:06:68
START 00:00:15

// Track 43
TRACK AUDIO
NO COPY
NO PRE_EMPHASIS
TWO_CHANNEL_AUDIO
FILE "TOMBRAIDER.bin" #291334240 24:50:68 00:09:22
START 00:00:22

// Track 44
TRACK AUDIO
NO COPY
NO PRE_EMPHASIS
TWO_CHANNEL_AUDIO
FILE "TOMBRAIDER.bin" #291334240 25:00:15 00:08:12
START 00:00:13

// Track 45
TRACK AUDIO
NO COPY
NO PRE_EMPHASIS
TWO_CHANNEL_AUDIO
FILE "TOMBRAIDER.bin" #291334240 25:08:27 00:10:02
START 00:00:25

// Track 46
TRACK AUDIO
NO COPY
NO PRE_EMPHASIS
TWO_CHANNEL_AUDIO
FILE "TOMBRAIDER.bin" #291334240 25:18:29 00:06:68
START 00:00:14

// Track 47
TRACK AUDIO
NO COPY
NO PRE_EMPHASIS
TWO_CHANNEL_AUDIO
FILE "TOMBRAIDER.bin" #291334240 25:25:22 00:07:18
START 00:00:22

// Track 48
TRACK AUDIO
NO COPY
NO PRE_EMPHASIS
TWO_CHANNEL_AUDIO
FILE "TOMBRAIDER.bin" #291334240 25:32:40 00:06:63
START 00:00:05

// Track 49
TRACK AUDIO
NO COPY
NO PRE_EMPHASIS
TWO_CHANNEL_AUDIO
FILE "TOMBRAIDER.bin" #291334240 25:39:28 00:15:71
START 00:00:18

// Track 50
TRACK AUDIO
NO COPY
NO PRE_EMPHASIS
TWO_CHANNEL_AUDIO
FILE "TOMBRAIDER.bin" #291334240 25:55:24 00:06:68
START 00:00:18

// Track 51
TRACK AUDIO
NO COPY
NO PRE_EMPHASIS
TWO_CHANNEL_AUDIO
FILE "TOMBRAIDER.bin" #291334240 26:02:17 00:07:15
START 00:00:25

// Track 52
TRACK AUDIO
NO COPY
NO PRE_EMPHASIS
TWO_CHANNEL_AUDIO
FILE "TOMBRAIDER.bin" #291334240 26:09:32 00:06:64
START 00:00:10

// Track 53
TRACK AUDIO
NO COPY
NO PRE_EMPHASIS
TWO_CHANNEL_AUDIO
FILE "TOMBRAIDER.bin" #291334240 26:16:21 00:09:36
START 00:00:22

// Track 54
TRACK AUDIO
NO COPY
NO PRE_EMPHASIS
TWO_CHANNEL_AUDIO
FILE "TOMBRAIDER.bin" #291334240 26:25:57 00:06:65
START 00:00:06

// Track 55
TRACK AUDIO
NO COPY
NO PRE_EMPHASIS
TWO_CHANNEL_AUDIO
FILE "TOMBRAIDER.bin" #291334240 26:32:47 00:09:53
START 00:00:17

// Track 56
TRACK AUDIO
NO COPY
NO PRE_EMPHASIS
TWO_CHANNEL_AUDIO
FILE "TOMBRAIDER.bin" #291334240 26:42:25 00:07:13
START 00:00:18

// Track 57
TRACK AUDIO
NO COPY
NO PRE_EMPHASIS
TWO_CHANNEL_AUDIO
FILE "TOMBRAIDER.bin" #291334240 26:49:38 03:17:06
START 00:00:06
