CD_ROM_XA

// Track 1
TRACK MODE2_FORM_MIX
NO COPY
DATAFILE "TOMBRAIDERS.bin" 27:38:17 // length in bytes: 290521312

// Track 2
TRACK AUDIO
NO COPY
NO PRE_EMPHASIS
TWO_CHANNEL_AUDIO
SILENCE 00:02:00
FILE "TOMBRAIDERS.bin" #290521312 0 03:16:39
START 00:02:00

// Track 3
TRACK AUDIO
NO COPY
NO PRE_EMPHASIS
TWO_CHANNEL_AUDIO
FILE "TOMBRAIDERS.bin" #290521312 03:16:39 01:03:64
START 00:00:04

// Track 4
TRACK AUDIO
NO COPY
NO PRE_EMPHASIS
TWO_CHANNEL_AUDIO
FILE "TOMBRAIDERS.bin" #290521312 04:20:28 02:03:29
START 00:00:13

// Track 5
TRACK AUDIO
NO COPY
NO PRE_EMPHASIS
TWO_CHANNEL_AUDIO
FILE "TOMBRAIDERS.bin" #290521312 06:23:57 02:00:29
START 00:00:23

// Track 6
TRACK AUDIO
NO COPY
NO PRE_EMPHASIS
TWO_CHANNEL_AUDIO
FILE "TOMBRAIDERS.bin" #290521312 08:24:11 01:16:56
START 00:00:05

// Track 7
TRACK AUDIO
NO COPY
NO PRE_EMPHASIS
TWO_CHANNEL_AUDIO
FILE "TOMBRAIDERS.bin" #290521312 09:40:67 00:55:71
START 00:00:23

// Track 8
TRACK AUDIO
NO COPY
NO PRE_EMPHASIS
TWO_CHANNEL_AUDIO
FILE "TOMBRAIDERS.bin" #290521312 10:36:63 01:08:23
START 00:00:18

// Track 9
TRACK AUDIO
NO COPY
NO PRE_EMPHASIS
TWO_CHANNEL_AUDIO
FILE "TOMBRAIDERS.bin" #290521312 11:45:11 00:40:17
START 00:00:14

// Track 10
TRACK AUDIO
NO COPY
NO PRE_EMPHASIS
TWO_CHANNEL_AUDIO
FILE "TOMBRAIDERS.bin" #290521312 12:25:28 01:19:21
START 00:00:03

// Track 11
TRACK AUDIO
NO COPY
NO PRE_EMPHASIS
TWO_CHANNEL_AUDIO
FILE "TOMBRAIDERS.bin" #290521312 13:44:49 00:08:31
START 00:00:03

// Track 12
TRACK AUDIO
NO COPY
NO PRE_EMPHASIS
TWO_CHANNEL_AUDIO
FILE "TOMBRAIDERS.bin" #290521312 13:53:05 00:14:62
START 00:00:09

// Track 13
TRACK AUDIO
NO COPY
NO PRE_EMPHASIS
TWO_CHANNEL_AUDIO
FILE "TOMBRAIDERS.bin" #290521312 14:07:67 00:06:74
START 00:00:21

// Track 14
TRACK AUDIO
NO COPY
NO PRE_EMPHASIS
TWO_CHANNEL_AUDIO
FILE "TOMBRAIDERS.bin" #290521312 14:14:66 00:12:07
START 00:00:25

// Track 15
TRACK AUDIO
NO COPY
NO PRE_EMPHASIS
TWO_CHANNEL_AUDIO
FILE "TOMBRAIDERS.bin" #290521312 14:26:73 00:11:21
START 00:00:23

// Track 16
TRACK AUDIO
NO COPY
NO PRE_EMPHASIS
TWO_CHANNEL_AUDIO
FILE "TOMBRAIDERS.bin" #290521312 14:38:19 00:38:54
START 00:00:05

// Track 17
TRACK AUDIO
NO COPY
NO PRE_EMPHASIS
TWO_CHANNEL_AUDIO
FILE "TOMBRAIDERS.bin" #290521312 15:16:73 00:42:62
START 00:00:14

// Track 18
TRACK AUDIO
NO COPY
NO PRE_EMPHASIS
TWO_CHANNEL_AUDIO
FILE "TOMBRAIDERS.bin" #290521312 15:59:60 00:25:23
START 00:00:16

// Track 19
TRACK AUDIO
NO COPY
NO PRE_EMPHASIS
TWO_CHANNEL_AUDIO
FILE "TOMBRAIDERS.bin" #290521312 16:25:08 01:28:48
START 00:00:17

// Track 20
TRACK AUDIO
NO COPY
NO PRE_EMPHASIS
TWO_CHANNEL_AUDIO
FILE "TOMBRAIDERS.bin" #290521312 17:53:56 00:54:18
START 00:00:14

// Track 21
TRACK AUDIO
NO COPY
NO PRE_EMPHASIS
TWO_CHANNEL_AUDIO
FILE "TOMBRAIDERS.bin" #290521312 18:47:74 00:41:14
START 00:00:13

// Track 22
TRACK AUDIO
NO COPY
NO PRE_EMPHASIS
TWO_CHANNEL_AUDIO
FILE "TOMBRAIDERS.bin" #290521312 19:29:13 01:03:34
START 00:00:16

// Track 23
TRACK AUDIO
NO COPY
NO PRE_EMPHASIS
TWO_CHANNEL_AUDIO
FILE "TOMBRAIDERS.bin" #290521312 20:32:47 00:55:73
START 00:00:14

// Track 24
TRACK AUDIO
NO COPY
NO PRE_EMPHASIS
TWO_CHANNEL_AUDIO
FILE "TOMBRAIDERS.bin" #290521312 21:28:45 00:15:33
START 00:00:18

// Track 25
TRACK AUDIO
NO COPY
NO PRE_EMPHASIS
TWO_CHANNEL_AUDIO
FILE "TOMBRAIDERS.bin" #290521312 21:44:03 00:36:02
START 00:00:13

// Track 26
TRACK AUDIO
NO COPY
NO PRE_EMPHASIS
TWO_CHANNEL_AUDIO
FILE "TOMBRAIDERS.bin" #290521312 22:20:05 00:06:68
START 00:00:04

// Track 27
TRACK AUDIO
NO COPY
NO PRE_EMPHASIS
TWO_CHANNEL_AUDIO
FILE "TOMBRAIDERS.bin" #290521312 22:26:73 00:06:68
START 00:00:11

// Track 28
TRACK AUDIO
NO COPY
NO PRE_EMPHASIS
TWO_CHANNEL_AUDIO
FILE "TOMBRAIDERS.bin" #290521312 22:33:66 00:07:15
START 00:00:18

// Track 29
TRACK AUDIO
NO COPY
NO PRE_EMPHASIS
TWO_CHANNEL_AUDIO
FILE "TOMBRAIDERS.bin" #290521312 22:41:06 00:07:65
START 00:00:03

// Track 30
TRACK AUDIO
NO COPY
NO PRE_EMPHASIS
TWO_CHANNEL_AUDIO
FILE "TOMBRAIDERS.bin" #290521312 22:48:71 00:08:59
START 00:00:17

// Track 31
TRACK AUDIO
NO COPY
NO PRE_EMPHASIS
TWO_CHANNEL_AUDIO
FILE "TOMBRAIDERS.bin" #290521312 22:57:55 00:07:73
START 00:00:13

// Track 32
TRACK AUDIO
NO COPY
NO PRE_EMPHASIS
TWO_CHANNEL_AUDIO
FILE "TOMBRAIDERS.bin" #290521312 23:05:53 00:06:67
START 00:00:19

// Track 33
TRACK AUDIO
NO COPY
NO PRE_EMPHASIS
TWO_CHANNEL_AUDIO
FILE "TOMBRAIDERS.bin" #290521312 23:12:45 00:07:15
START 00:00:27

// Track 34
TRACK AUDIO
NO COPY
NO PRE_EMPHASIS
TWO_CHANNEL_AUDIO
FILE "TOMBRAIDERS.bin" #290521312 23:19:60 00:06:61
START 00:00:12

// Track 35
TRACK AUDIO
NO COPY
NO PRE_EMPHASIS
TWO_CHANNEL_AUDIO
FILE "TOMBRAIDERS.bin" #290521312 23:26:46 00:07:08
START 00:00:26

// Track 36
TRACK AUDIO
NO COPY
NO PRE_EMPHASIS
TWO_CHANNEL_AUDIO
FILE "TOMBRAIDERS.bin" #290521312 23:33:54 00:13:11
START 00:00:18

// Track 37
TRACK AUDIO
NO COPY
NO PRE_EMPHASIS
TWO_CHANNEL_AUDIO
FILE "TOMBRAIDERS.bin" #290521312 23:46:65 00:07:13
START 00:00:20

// Track 38
TRACK AUDIO
NO COPY
NO PRE_EMPHASIS
TWO_CHANNEL_AUDIO
FILE "TOMBRAIDERS.bin" #290521312 23:54:03 00:07:05
START 00:00:08

// Track 39
TRACK AUDIO
NO COPY
NO PRE_EMPHASIS
TWO_CHANNEL_AUDIO
FILE "TOMBRAIDERS.bin" #290521312 24:01:08 00:19:31
START 00:00:04

// Track 40
TRACK AUDIO
NO COPY
NO PRE_EMPHASIS
TWO_CHANNEL_AUDIO
FILE "TOMBRAIDERS.bin" #290521312 24:20:39 00:12:31
START 00:00:07

// Track 41
TRACK AUDIO
NO COPY
NO PRE_EMPHASIS
TWO_CHANNEL_AUDIO
FILE "TOMBRAIDERS.bin" #290521312 24:32:70 00:07:01
START 00:00:10

// Track 42
TRACK AUDIO
NO COPY
NO PRE_EMPHASIS
TWO_CHANNEL_AUDIO
FILE "TOMBRAIDERS.bin" #290521312 24:39:71 00:07:00
START 00:00:09

// Track 43
TRACK AUDIO
NO COPY
NO PRE_EMPHASIS
TWO_CHANNEL_AUDIO
FILE "TOMBRAIDERS.bin" #290521312 24:46:71 00:15:04
START 00:00:09

// Track 44
TRACK AUDIO
NO COPY
NO PRE_EMPHASIS
TWO_CHANNEL_AUDIO
FILE "TOMBRAIDERS.bin" #290521312 25:02:00 00:08:51
START 00:00:16

// Track 45
TRACK AUDIO
NO COPY
NO PRE_EMPHASIS
TWO_CHANNEL_AUDIO
FILE "TOMBRAIDERS.bin" #290521312 25:10:51 00:12:53
START 00:00:19

// Track 46
TRACK AUDIO
NO COPY
NO PRE_EMPHASIS
TWO_CHANNEL_AUDIO
FILE "TOMBRAIDERS.bin" #290521312 25:23:29 00:06:63
START 00:00:05

// Track 47
TRACK AUDIO
NO COPY
NO PRE_EMPHASIS
TWO_CHANNEL_AUDIO
FILE "TOMBRAIDERS.bin" #290521312 25:30:17 00:07:13
START 00:00:17

// Track 48
TRACK AUDIO
NO COPY
NO PRE_EMPHASIS
TWO_CHANNEL_AUDIO
FILE "TOMBRAIDERS.bin" #290521312 25:37:30 00:07:01
START 00:00:04

// Track 49
TRACK AUDIO
NO COPY
NO PRE_EMPHASIS
TWO_CHANNEL_AUDIO
FILE "TOMBRAIDERS.bin" #290521312 25:44:31 00:20:36
START 00:00:03

// Track 50
TRACK AUDIO
NO COPY
NO PRE_EMPHASIS
TWO_CHANNEL_AUDIO
FILE "TOMBRAIDERS.bin" #290521312 26:04:67 00:07:19
START 00:00:22

// Track 51
TRACK AUDIO
NO COPY
NO PRE_EMPHASIS
TWO_CHANNEL_AUDIO
FILE "TOMBRAIDERS.bin" #290521312 26:12:11 00:06:65
START 00:00:03

// Track 52
TRACK AUDIO
NO COPY
NO PRE_EMPHASIS
TWO_CHANNEL_AUDIO
FILE "TOMBRAIDERS.bin" #290521312 26:19:01 00:06:62
START 00:00:14

// Track 53
TRACK AUDIO
NO COPY
NO PRE_EMPHASIS
TWO_CHANNEL_AUDIO
FILE "TOMBRAIDERS.bin" #290521312 26:25:63 00:07:54
START 00:00:27

// Track 54
TRACK AUDIO
NO COPY
NO PRE_EMPHASIS
TWO_CHANNEL_AUDIO
FILE "TOMBRAIDERS.bin" #290521312 26:33:42 00:06:64
START 00:00:04

// Track 55
TRACK AUDIO
NO COPY
NO PRE_EMPHASIS
TWO_CHANNEL_AUDIO
FILE "TOMBRAIDERS.bin" #290521312 26:40:31 00:19:06
START 00:00:15

// Track 56
TRACK AUDIO
NO COPY
NO PRE_EMPHASIS
TWO_CHANNEL_AUDIO
FILE "TOMBRAIDERS.bin" #290521312 26:59:37 00:07:18
START 00:00:20

// Track 57
TRACK AUDIO
NO COPY
NO PRE_EMPHASIS
TWO_CHANNEL_AUDIO
FILE "TOMBRAIDERS.bin" #290521312 27:06:55 03:14:45
START 00:00:02
