{
	"source":           "https://archive.org/download/Redump.orgSonyPlayStation-NTSC-U-T",
	"disc_label":       "TOMB_RAIDER_2",
	"disc_track1_size":  245382784,
	"disc_tracks":       61,
	"latest_timestamp": "1997-11-13 15:02:56 +0100  	slus_004.37"
}
