CD_ROM

// Track 1
TRACK MODE1
NO COPY
DATAFILE "1997-11-13-05-00-19-02.bin" 25:26:40 // length in bytes: 234475520

// Track 2
TRACK AUDIO
NO COPY
NO PRE_EMPHASIS
TWO_CHANNEL_AUDIO
SILENCE 00:02:00
FILE "1997-11-13-05-00-19-02.bin" #234475520 0 01:27:36
START 00:02:00

// Track 3
TRACK AUDIO
NO COPY
NO PRE_EMPHASIS
TWO_CHANNEL_AUDIO
FILE "1997-11-13-05-00-19-02.bin" #234475520 01:27:36 01:56:26

// Track 4
TRACK AUDIO
NO COPY
NO PRE_EMPHASIS
TWO_CHANNEL_AUDIO
FILE "1997-11-13-05-00-19-02.bin" #234475520 03:23:62 02:17:62

// Track 5
TRACK AUDIO
NO COPY
NO PRE_EMPHASIS
TWO_CHANNEL_AUDIO
FILE "1997-11-13-05-00-19-02.bin" #234475520 05:41:49 00:09:61

// Track 6
TRACK AUDIO
NO COPY
NO PRE_EMPHASIS
TWO_CHANNEL_AUDIO
FILE "1997-11-13-05-00-19-02.bin" #234475520 05:51:35 00:08:73

// Track 7
TRACK AUDIO
NO COPY
NO PRE_EMPHASIS
TWO_CHANNEL_AUDIO
FILE "1997-11-13-05-00-19-02.bin" #234475520 06:00:33 00:07:02

// Track 8
TRACK AUDIO
NO COPY
NO PRE_EMPHASIS
TWO_CHANNEL_AUDIO
FILE "1997-11-13-05-00-19-02.bin" #234475520 06:07:35 00:07:04

// Track 9
TRACK AUDIO
NO COPY
NO PRE_EMPHASIS
TWO_CHANNEL_AUDIO
FILE "1997-11-13-05-00-19-02.bin" #234475520 06:14:39 00:08:01

// Track 10
TRACK AUDIO
NO COPY
NO PRE_EMPHASIS
TWO_CHANNEL_AUDIO
FILE "1997-11-13-05-00-19-02.bin" #234475520 06:22:40 00:13:26

// Track 11
TRACK AUDIO
NO COPY
NO PRE_EMPHASIS
TWO_CHANNEL_AUDIO
FILE "1997-11-13-05-00-19-02.bin" #234475520 06:35:66 00:17:61

// Track 12
TRACK AUDIO
NO COPY
NO PRE_EMPHASIS
TWO_CHANNEL_AUDIO
FILE "1997-11-13-05-00-19-02.bin" #234475520 06:53:52 00:10:39

// Track 13
TRACK AUDIO
NO COPY
NO PRE_EMPHASIS
TWO_CHANNEL_AUDIO
FILE "1997-11-13-05-00-19-02.bin" #234475520 07:04:16 00:11:10

// Track 14
TRACK AUDIO
NO COPY
NO PRE_EMPHASIS
TWO_CHANNEL_AUDIO
FILE "1997-11-13-05-00-19-02.bin" #234475520 07:15:26 00:07:02

// Track 15
TRACK AUDIO
NO COPY
NO PRE_EMPHASIS
TWO_CHANNEL_AUDIO
FILE "1997-11-13-05-00-19-02.bin" #234475520 07:22:28 00:07:02

// Track 16
TRACK AUDIO
NO COPY
NO PRE_EMPHASIS
TWO_CHANNEL_AUDIO
FILE "1997-11-13-05-00-19-02.bin" #234475520 07:29:30 00:07:03

// Track 17
TRACK AUDIO
NO COPY
NO PRE_EMPHASIS
TWO_CHANNEL_AUDIO
FILE "1997-11-13-05-00-19-02.bin" #234475520 07:36:33 00:11:04

// Track 18
TRACK AUDIO
NO COPY
NO PRE_EMPHASIS
TWO_CHANNEL_AUDIO
FILE "1997-11-13-05-00-19-02.bin" #234475520 07:47:37 00:07:02

// Track 19
TRACK AUDIO
NO COPY
NO PRE_EMPHASIS
TWO_CHANNEL_AUDIO
FILE "1997-11-13-05-00-19-02.bin" #234475520 07:54:39 00:07:02

// Track 20
TRACK AUDIO
NO COPY
NO PRE_EMPHASIS
TWO_CHANNEL_AUDIO
FILE "1997-11-13-05-00-19-02.bin" #234475520 08:01:41 00:07:02

// Track 21
TRACK AUDIO
NO COPY
NO PRE_EMPHASIS
TWO_CHANNEL_AUDIO
FILE "1997-11-13-05-00-19-02.bin" #234475520 08:08:43 00:07:02

// Track 22
TRACK AUDIO
NO COPY
NO PRE_EMPHASIS
TWO_CHANNEL_AUDIO
FILE "1997-11-13-05-00-19-02.bin" #234475520 08:15:45 00:07:02

// Track 23
TRACK AUDIO
NO COPY
NO PRE_EMPHASIS
TWO_CHANNEL_AUDIO
FILE "1997-11-13-05-00-19-02.bin" #234475520 08:22:47 00:18:51

// Track 24
TRACK AUDIO
NO COPY
NO PRE_EMPHASIS
TWO_CHANNEL_AUDIO
FILE "1997-11-13-05-00-19-02.bin" #234475520 08:41:23 00:11:02

// Track 25
TRACK AUDIO
NO COPY
NO PRE_EMPHASIS
TWO_CHANNEL_AUDIO
FILE "1997-11-13-05-00-19-02.bin" #234475520 08:52:25 00:07:02

// Track 26
TRACK AUDIO
NO COPY
NO PRE_EMPHASIS
TWO_CHANNEL_AUDIO
FILE "1997-11-13-05-00-19-02.bin" #234475520 08:59:27 00:53:67

// Track 27
TRACK AUDIO
NO COPY
NO PRE_EMPHASIS
TWO_CHANNEL_AUDIO
FILE "1997-11-13-05-00-19-02.bin" #234475520 09:53:19 02:00:13

// Track 28
TRACK AUDIO
NO COPY
NO PRE_EMPHASIS
TWO_CHANNEL_AUDIO
FILE "1997-11-13-05-00-19-02.bin" #234475520 11:53:32 01:59:60

// Track 29
TRACK AUDIO
NO COPY
NO PRE_EMPHASIS
TWO_CHANNEL_AUDIO
FILE "1997-11-13-05-00-19-02.bin" #234475520 13:53:17 02:48:35

// Track 30
TRACK AUDIO
NO COPY
NO PRE_EMPHASIS
TWO_CHANNEL_AUDIO
FILE "1997-11-13-05-00-19-02.bin" #234475520 16:41:52 03:05:61

// Track 31
TRACK AUDIO
NO COPY
NO PRE_EMPHASIS
TWO_CHANNEL_AUDIO
FILE "1997-11-13-05-00-19-02.bin" #234475520 19:47:38 00:09:59

// Track 32
TRACK AUDIO
NO COPY
NO PRE_EMPHASIS
TWO_CHANNEL_AUDIO
FILE "1997-11-13-05-00-19-02.bin" #234475520 19:57:22 00:06:49

// Track 33
TRACK AUDIO
NO COPY
NO PRE_EMPHASIS
TWO_CHANNEL_AUDIO
FILE "1997-11-13-05-00-19-02.bin" #234475520 20:03:71 00:18:37

// Track 34
TRACK AUDIO
NO COPY
NO PRE_EMPHASIS
TWO_CHANNEL_AUDIO
FILE "1997-11-13-05-00-19-02.bin" #234475520 20:22:33 00:56:35

// Track 35
TRACK AUDIO
NO COPY
NO PRE_EMPHASIS
TWO_CHANNEL_AUDIO
FILE "1997-11-13-05-00-19-02.bin" #234475520 21:18:68 00:21:68

// Track 36
TRACK AUDIO
NO COPY
NO PRE_EMPHASIS
TWO_CHANNEL_AUDIO
FILE "1997-11-13-05-00-19-02.bin" #234475520 21:40:61 02:40:71

// Track 37
TRACK AUDIO
NO COPY
NO PRE_EMPHASIS
TWO_CHANNEL_AUDIO
FILE "1997-11-13-05-00-19-02.bin" #234475520 24:21:57 00:14:15

// Track 38
TRACK AUDIO
NO COPY
NO PRE_EMPHASIS
TWO_CHANNEL_AUDIO
FILE "1997-11-13-05-00-19-02.bin" #234475520 24:35:72 00:13:34

// Track 39
TRACK AUDIO
NO COPY
NO PRE_EMPHASIS
TWO_CHANNEL_AUDIO
FILE "1997-11-13-05-00-19-02.bin" #234475520 24:49:31 00:16:65

// Track 40
TRACK AUDIO
NO COPY
NO PRE_EMPHASIS
TWO_CHANNEL_AUDIO
FILE "1997-11-13-05-00-19-02.bin" #234475520 25:06:21 00:19:64

// Track 41
TRACK AUDIO
NO COPY
NO PRE_EMPHASIS
TWO_CHANNEL_AUDIO
FILE "1997-11-13-05-00-19-02.bin" #234475520 25:26:10 01:01:07

// Track 42
TRACK AUDIO
NO COPY
NO PRE_EMPHASIS
TWO_CHANNEL_AUDIO
FILE "1997-11-13-05-00-19-02.bin" #234475520 26:27:17 00:35:31

// Track 43
TRACK AUDIO
NO COPY
NO PRE_EMPHASIS
TWO_CHANNEL_AUDIO
FILE "1997-11-13-05-00-19-02.bin" #234475520 27:02:48 00:06:30

// Track 44
TRACK AUDIO
NO COPY
NO PRE_EMPHASIS
TWO_CHANNEL_AUDIO
FILE "1997-11-13-05-00-19-02.bin" #234475520 27:09:03 00:16:00

// Track 45
TRACK AUDIO
NO COPY
NO PRE_EMPHASIS
TWO_CHANNEL_AUDIO
FILE "1997-11-13-05-00-19-02.bin" #234475520 27:25:03 00:11:74

// Track 46
TRACK AUDIO
NO COPY
NO PRE_EMPHASIS
TWO_CHANNEL_AUDIO
FILE "1997-11-13-05-00-19-02.bin" #234475520 27:37:02 00:14:28

// Track 47
TRACK AUDIO
NO COPY
NO PRE_EMPHASIS
TWO_CHANNEL_AUDIO
FILE "1997-11-13-05-00-19-02.bin" #234475520 27:51:30 00:10:34

// Track 48
TRACK AUDIO
NO COPY
NO PRE_EMPHASIS
TWO_CHANNEL_AUDIO
FILE "1997-11-13-05-00-19-02.bin" #234475520 28:01:64 02:45:09

// Track 49
TRACK AUDIO
NO COPY
NO PRE_EMPHASIS
TWO_CHANNEL_AUDIO
FILE "1997-11-13-05-00-19-02.bin" #234475520 30:46:73 01:13:26

// Track 50
TRACK AUDIO
NO COPY
NO PRE_EMPHASIS
TWO_CHANNEL_AUDIO
FILE "1997-11-13-05-00-19-02.bin" #234475520 32:00:24 00:09:48

// Track 51
TRACK AUDIO
NO COPY
NO PRE_EMPHASIS
TWO_CHANNEL_AUDIO
FILE "1997-11-13-05-00-19-02.bin" #234475520 32:09:72 00:44:09

// Track 52
TRACK AUDIO
NO COPY
NO PRE_EMPHASIS
TWO_CHANNEL_AUDIO
FILE "1997-11-13-05-00-19-02.bin" #234475520 32:54:06 00:11:62

// Track 53
TRACK AUDIO
NO COPY
NO PRE_EMPHASIS
TWO_CHANNEL_AUDIO
FILE "1997-11-13-05-00-19-02.bin" #234475520 33:05:68 00:51:08

// Track 54
TRACK AUDIO
NO COPY
NO PRE_EMPHASIS
TWO_CHANNEL_AUDIO
FILE "1997-11-13-05-00-19-02.bin" #234475520 33:57:01 03:31:46

// Track 55
TRACK AUDIO
NO COPY
NO PRE_EMPHASIS
TWO_CHANNEL_AUDIO
FILE "1997-11-13-05-00-19-02.bin" #234475520 37:28:47 03:31:58

// Track 56
TRACK AUDIO
NO COPY
NO PRE_EMPHASIS
TWO_CHANNEL_AUDIO
FILE "1997-11-13-05-00-19-02.bin" #234475520 41:00:30 01:47:54

// Track 57
TRACK AUDIO
NO COPY
NO PRE_EMPHASIS
TWO_CHANNEL_AUDIO
FILE "1997-11-13-05-00-19-02.bin" #234475520 42:48:09 00:25:47

// Track 58
TRACK AUDIO
NO COPY
NO PRE_EMPHASIS
TWO_CHANNEL_AUDIO
FILE "1997-11-13-05-00-19-02.bin" #234475520 43:13:56 00:23:50

// Track 59
TRACK AUDIO
NO COPY
NO PRE_EMPHASIS
TWO_CHANNEL_AUDIO
FILE "1997-11-13-05-00-19-02.bin" #234475520 43:37:31 00:19:56

// Track 60
TRACK AUDIO
NO COPY
NO PRE_EMPHASIS
TWO_CHANNEL_AUDIO
FILE "1997-11-13-05-00-19-02.bin" #234475520 43:57:12 02:48:49

// Track 61
TRACK AUDIO
NO COPY
NO PRE_EMPHASIS
TWO_CHANNEL_AUDIO
FILE "1997-11-13-05-00-19-02.bin" #234475520 46:45:61 00:07:02
