File	Size	Timestamp	MD5 Hash
cacklogo.raw	10485	1996-10-24 04:01:44 +0200  	9ad38f0a211d395394856a80de552666
contents.dat	51200	1998-02-10 09:20:14 +0100  	aaad45aa45c8d94379034b317fee9abc
deldata/amertit.raw	69633	1996-10-09 05:18:00 +0200  	7a4b00e4a73cc248da760b0279a9c9d7
deldata/atlanloa.raw	45218	1996-10-02 11:03:50 +0200  	688ecbba607b8fad52c061a5a0de0e51
deldata/aztecloa.raw	70938	1996-10-02 11:03:58 +0200  	0bbcbb88378a8450dac69ae32cb38168
deldata/cred.raw	20033	1996-09-26 05:44:22 +0200  	20785d1cbf0f5441db0dcd9c3306d77b
deldata/egyptloa.raw	78214	1996-10-02 11:04:08 +0200  	1ed837c22e094865b4e86821c5b779b5
deldata/end.raw	23600	1996-09-26 05:44:50 +0200  	81edc8f66ac196ff16b930766a06ebc5
deldata/fmvtab.dat	65536	1995-12-09 07:10:06 +0100  	8cdb77e6de121a5d69487331d051a9e3
deldata/greekloa.raw	96657	1996-10-02 11:04:16 +0200  	763256efac2dac6ac922c39e2b1890f6
deldata/gymload.raw	79409	1996-10-02 11:04:28 +0200  	15313a6c0ad54b7b423089ef91e0738b
demodata/level2.dem	4112	1996-09-16 15:19:34 +0200  	7ad8f251011c5ea827ca194f565a76fe
demodata/level3a.dem	3716	1996-09-16 15:10:36 +0200  	0f23b3f1018d44adb236fd80956544b9
dummy.fil	1048576	1998-01-28 04:07:32 +0100  	b6d81b360a5672d80c27430f39153e2c
fmv/cafe.fmv	31979520	1996-09-02 04:51:06 +0200  	###### Input/Output Error ######
fmv/canyon.fmv	55621632	1996-08-30 07:04:10 +0200  	###### Input/Output Error ######
fmv/corelogo.fmv	3946496	1996-09-27 07:34:20 +0200  	###### Input/Output Error ######
fmv/end.fmv	18636800	1996-08-29 03:47:20 +0200  	###### Input/Output Error ######
fmv/lift.fmv	31668224	1996-08-30 11:24:44 +0200  	###### Input/Output Error ######
fmv/mansion.fmv	3635200	1996-09-02 04:30:46 +0200  	###### Input/Output Error ######
fmv/prison.fmv	28313600	1996-08-30 11:26:16 +0200  	###### Input/Output Error ######
fmv/pyramid.fmv	2668544	1996-09-05 07:27:52 +0200  	###### Input/Output Error ######
fmv/snow.fmv	31750144	1996-08-28 07:34:10 +0200  	###### Input/Output Error ######
fmv/vision.fmv	16906240	1996-09-05 05:54:28 +0200  	###### Input/Output Error ######
launch.exe	24576	1998-02-11 05:52:22 +0100  	34202680131a022900eeb72b42ef3571
main.exe	512000	1998-02-10 09:43:22 +0100  	3a9e74bfa71f2f7c05afc97d102130bc
menu.ff	3063808	1998-02-10 09:19:04 +0100  	470f3c306bbd4e8c10c0ec4c176a5f5e
movies/endcap.str	614400	1998-01-28 04:06:44 +0100  	7ac4f82be24c363e60258f879e8898c9
movies/gex3.str	17317888	1998-12-10 20:15:42 +0100  	###### Input/Output Error ######
movies/kain2.str	37621760	1998-12-10 20:33:30 +0100  	###### Input/Output Error ######
psxdata/cut1.psx	722402	1996-10-16 07:16:50 +0200  	11399d0df5d2cb27711f8beab0547413
psxdata/cut2.psx	542960	1996-10-16 07:16:54 +0200  	774b6639af00caef604e892984b2921d
psxdata/cut3.psx	636660	1996-10-16 07:17:02 +0200  	45149ddfa927c6971128b034a947a0d2
psxdata/cut4.psx	940398	1996-10-16 07:17:08 +0200  	3aca80606c13637460988672320674f1
psxdata/gym.psx	1074234	1996-10-16 07:28:22 +0200  	8b86e4916abc4fe80cd257a052a39066
psxdata/level10a.psx	1678018	1996-11-25 03:53:40 +0100  	11840bd04e4757d7010a0a32b45a0ff1
psxdata/level10b.psx	1686748	1996-10-16 07:16:20 +0200  	e8966ed00237f9c8fd7c18e737555d42
psxdata/level10c.psx	1814278	1996-10-16 07:16:42 +0200  	85b6e66d65d9455a8624cfddbb60a36e
psxdata/level1.psx	1448896	1996-10-16 07:11:36 +0200  	c594ef66db979d1808404cc129ecbf61
psxdata/level2.psx	1535734	1996-10-16 07:12:00 +0200  	29758968e595766c8675c2f9cff8f208
psxdata/level3a.psx	1630560	1996-10-16 07:12:20 +0200  	491607c1c99eb95b5df7970ba3038cd4
psxdata/level3b.psx	1506614	1996-10-16 07:12:42 +0200  	18848f87a756c39f0e291521848143f5
psxdata/level4.psx	1621970	1996-10-16 07:13:04 +0200  	13306316fed203c802e95c4c593fefa9
psxdata/level5.psx	1585942	1996-10-16 07:13:22 +0200  	8a55ae761fccce002a459c20c7ce14e0
psxdata/level6.psx	1708464	1996-10-16 07:13:44 +0200  	1817a6ef1a3d96d7f7288aa45d2e1f93
psxdata/level7a.psx	1696664	1996-10-16 07:14:02 +0200  	ee0bd1388e8e1515cd7dccfe260a155e
psxdata/level7b.psx	1733274	1996-10-16 07:14:26 +0200  	9b0e7640e87a8535531ebee6db732505
psxdata/level8a.psx	1563356	1996-10-16 07:14:48 +0200  	2eac8c1d44c769787de5051bc2b28a22
psxdata/level8b.psx	1565630	1996-10-16 07:15:10 +0200  	5a6a2eb4efcd730cc73a7aeb40553795
psxdata/level8c.psx	1619360	1996-10-16 07:15:34 +0200  	719ba27b1de471e677b6a73e5beb6242
psxdata/title.psx	508614	1996-10-16 07:11:18 +0200  	ab590c951d08163c20e19762e0d0f044
psx.exe	24576	1998-02-11 05:52:22 +0100  	34202680131a022900eeb72b42ef3571
slus_001.52	24576	1998-02-11 05:27:32 +0100  	386bae854b54aec51a98ecef9a7b8aca
system.cnf	60	1998-02-05 07:26:04 +0100  	004cbb80d4e64fa69008555bbeca6a4d
tombraid.exe	501760	1996-10-24 04:20:42 +0200  	5adf580adb5861333e3d36b0683d18d5
