File	Size	Timestamp	MD5 Hash
cdrom/cdrom.bin	652162560	2019-07-19 13:23:47.119376500 +0200  	30a399532ce7ac76b1322cbe8cb10a62
cdrom/cdrom.cue	68	2019-07-19 13:23:47.132187900 +0200  	99797b97b302d0bfef966dcebd1a8f81
document.dat	288536	2019-07-19 11:15:26 +0200  	94ebc37fc738a731ecb93f0270d1d857
eboot.pbp	432312995	2019-07-19 11:53:59 +0200  	abe74c6a35593fb78e2e711c93b01a3d
iso/iso.bin	652162560	2019-07-19 13:23:24.699381100 +0200  	6d97c16917997f969e358359eca2ab01
iso/iso_header.bin	735360	2019-07-19 13:22:29.030288200 +0200  	abade7ee399eb5cccc1cf28e5460055c
iso/simple.bin	5378	2019-07-19 13:22:29.030651000 +0200  	4d7eda8ab360952c3b0bbf932e19fdfa
iso/simple.png	5350	2019-07-19 13:22:29.030876900 +0200  	fa3e0be85d2d86cae536c162014c6198
iso/startdat.bin	6243	2019-07-19 13:22:29.011149500 +0200  	87ed8324529e6372afe63722e5992f05
iso/startdat.png	6163	2019-07-19 13:22:29.011449300 +0200  	129cba531a6f635d4475c9df4e09b87e
iso/unknown_data.bin	1440	2019-07-19 13:22:29.031084500 +0200  	c4c7708a7a59c5d87181ca03e8fa4825
keys.bin	16	2019-07-19 11:14:56 +0200  	fb94d41b3b602a159a4c26e012d26292
pbp/data.psar	432247459	2019-07-19 13:22:28.974755700 +0200  	662b68fe8bdf2f7cac62cbc342ffb7d5
pbp/data.psp	25580	2019-07-19 13:22:18.849957600 +0200  	0b2c75b9eb72c6c35c9bdc3d47f1c4ff
pbp/icon0.png	10704	2019-07-19 13:22:18.840781200 +0200  	0e857efa0434cd7f62907590b8e37b8d
pbp/param.sfo	944	2019-07-19 13:22:18.840303400 +0200  	90c0e674726987328464258b8ada1d76
pbp/pic0.png	25617	2019-07-19 13:22:18.842000400 +0200  	26b47de1f0e3d4d0c61d9c0d7fb7d385
pbp/pic1.png	2651	2019-07-19 13:22:18.842170100 +0200  	26f7762ef67f0c5fff723e1107e566be
