File	Size	Timestamp	MD5 Hash
audiere.dll	512000	2018-06-10 21:17:00.139009300 +0200	14fdbcf78f39553202d382d9082dc9cb
audio/cdaudio.dat	1656	2018-06-10 21:17:00.457106400 +0200	a3bbf0cc3c70fb08e0b79a32b7f37f09
audio/cdaudio.mp3	42848365	2018-06-10 21:17:00.139009300 +0200	39a48e6750b8f546149eadae58d0a27a
data/assault.tr2	3471450	2018-06-10 21:17:00.141009500 +0200	d6f218e32d172e67db60daa35ef7e114
data/autorun.exe	170496	2018-06-10 21:17:06.196293300 +0200	31ee93840f985c82473148b88d0adfb4
data/autorun.ico	766	2018-06-10 21:17:06.740332000 +0200	b512d29fe40c5dcd46bd801bb2dbdbcd
data/autorun.inf	49	2018-06-10 21:17:06.789331800 +0200	629d893cf661a83dcb0ba3a16d81436f
data/boat.tr2	3945738	2018-06-10 21:17:00.141009500 +0200	361a49ac2e9c58e2ac70f0b667ddbd54
data/catacomb.tr2	3605052	2018-06-10 21:17:00.142009400 +0200	f719b6a79d80da85440eaa923a2b1ae6
data/credit01.pcx	48302	2018-06-10 21:17:12.231861700 +0200	2b5d853a943141596bacfa3a051c235d
data/credit02.pcx	50453	2018-06-10 21:17:12.677025700 +0200	6c42318682cfcec26efbfaa4d62ba79d
data/credit03.pcx	46974	2018-06-10 21:17:12.691025000 +0200	8ddede569b8ece0e0d5a3eae839a452a
data/credit04.pcx	46493	2018-06-10 21:17:12.726025100 +0200	003b2b13f3bc6667c55a6b6748a9c688
data/credit05.pcx	59882	2018-06-10 21:17:06.295292000 +0200	c30b43bb33cf0df43d6cea1c610db201
data/credit06.pcx	47959	2018-06-10 21:17:07.762086300 +0200	eb2cee75c9c41867a1c13234fcc69767
data/credit07.pcx	54619	2018-06-10 21:17:07.731086600 +0200	04c23117c5ede7f4b77677775677652b
data/credit08.pcx	58867	2018-06-10 21:17:07.780086000 +0200	806be113f1d5e4066b211ff0386f24cd
data/credit09.pcx	112771	2018-06-10 21:17:07.829085100 +0200	851d622449b9004fb578523706cb99d5
data/cut1.tr2	1767052	2018-06-10 21:17:00.142009400 +0200	bc6bd4af656c6ce5ea4c388b23365f0a
data/cut2.tr2	2037544	2018-06-10 21:17:00.143009400 +0200	b3992380d8aa167b13f8e01a20ce2d7f
data/cut3.tr2	2558286	2018-06-10 21:17:00.143009400 +0200	170950c16fc31be97dbd42547acbf398
data/cut4.tr2	1900230	2018-06-10 21:17:00.144009400 +0200	afda52933e133a64f7cf624371e7445a
data/data	5340	2018-06-10 21:17:12.776024200 +0200	d48757da01f8642f1a3d82fae0fc99e4
data/data1.cab	549037	2018-06-10 21:17:00.145010100 +0200	1461a540ee9e581c8de4f4fccc6412cd
data/data.tag	101	2018-06-10 21:17:12.826023500 +0200	4945551ee03b0ba808c0764c01e1dc27
data/deck.tr2	3890042	2018-06-10 21:17:00.145010100 +0200	35afe8b754f3c786ae02a716bf193ed9
data/dsetup16.dll	63056	2018-06-10 21:17:08.283177200 +0200	550c643fbe00165634cfeff9bde3fb69
data/dsetup32.dll	41984	2018-06-10 21:17:07.632071800 +0200	3d98c98e3a859bb26aca297b6fff3cde
data/dsetup.dll	127488	2018-06-10 21:17:08.225151400 +0200	9cf66de71dc7143006c9cd719dcbf32f
data/emprtomb.tr2	4291468	2018-06-10 21:17:00.146009800 +0200	38c933bd3d019ed1338749b78b07d82f
data/end.pcx	112773	2018-06-10 21:17:07.741087000 +0200	72169691f91ed6fb4f3914aab8febfcd
data/floating.tr2	4007486	2018-06-10 21:17:00.146009800 +0200	1e7d0d88ff9d569e22982af761bb006b
data/house.tr2	3693108	2018-06-10 21:17:00.147009000 +0200	b56c04ea52227eb7fdebd0665b45357a
data/icecave.tr2	3803398	2018-06-10 21:17:00.147009000 +0200	6781ace1c3584f440fd0b61ca280f034
data/_inst32i.ex_	316937	2018-06-10 21:17:00.155009200 +0200	a755efdaa55974c1a5dba5eefa0a5ebe
data/_isdel.exe	8192	2018-06-10 21:17:12.133863400 +0200	38cacf5a4997363829a9901d627f80e3
data/keel.tr2	3995356	2018-06-10 21:17:00.148009200 +0200	6011c18086245fabf16c8265601451d6
data/lang.dat	352	2018-06-10 21:17:09.268395600 +0200	fd117b58c15db10821aee6029ea829f8
data/language.dat	4881	2018-06-10 21:17:08.524300400 +0200	4408de76f0ee100fc9fc1904a0b559c5
data/layout.bin	353	2018-06-10 21:17:08.625301100 +0200	2c6c4295f91a2fd48311b351197945dd
data/legal.pcx	68005	2018-06-10 21:17:08.872336200 +0200	e80d1f4b487576485b278068c78e1cb3
data/living.tr2	3501472	2018-06-10 21:17:00.149009200 +0200	f16bb5d048ce82cdaa86114e0ae90c2b
data/main.sfx	7961208	2018-06-10 21:17:00.149009200 +0200	31157b9ad747ad1cba2b0de13a637534
data/monastry.tr2	4325562	2018-06-10 21:17:00.150009200 +0200	b9edd6b3c561289463e65475563b3264
data/opera.tr2	3996500	2018-06-10 21:17:00.150009200 +0200	5a1d02fc5b33900250563b5481f062ed
data/os.dat	419	2018-06-10 21:17:13.763165000 +0200	94d9f85ad98bd25100dacee96b438900
data/platform.tr2	4101590	2018-06-10 21:17:00.151009900 +0200	b3501c67e828452cd58644ae5c3dd854
data/rig.tr2	3944472	2018-06-10 21:17:00.151009900 +0200	d236fac172c123de71e0d1a196266fd8
data/setup.bmp	165400	2018-06-10 21:17:09.714501500 +0200	571141d7865e748d214bdfe71f947c8a
data/_setup.dll	11264	2018-06-10 21:17:15.098159700 +0200	c4f7328b247c09c93d284f3e5fc5fcac
data/setup.exe	59392	2018-06-10 21:17:13.911163100 +0200	5debe4269d18c2036764dc7269294760
data/setup.ini	30	2018-06-10 21:17:14.555168200 +0200	4ffa7e7074a5cc3c7af7ff60cd721b9a
data/setup.ins	56261	2018-06-10 21:17:14.653165600 +0200	2864d18c6d827c5fa8569702f052833d
data/setup.lid	47	2018-06-10 21:17:10.653647500 +0200	2aea6c00031f7392f7ee7ab48b1c48cb
data/skidoo.tr2	3521106	2018-06-10 21:17:00.152009800 +0200	7c219c269643bb4c8d67498f4664946e
data/_sys1.cab	181745	2018-06-10 21:17:12.826023500 +0200	a4d442db0ea5657f55003d416a725797
data/title.pcx	209815	2018-06-10 21:17:17.175481500 +0200	a5dad5ff5cb275825ff1895ca76fa908
data/title.tr2	611892	2018-06-10 21:17:00.152009800 +0200	5154d720880db8774c7dfbefdd16f2a8
data/tombpc.dat	5340	2018-06-10 21:17:12.777024400 +0200	d48757da01f8642f1a3d82fae0fc99e4
data/unwater.tr2	3131814	2018-06-10 21:17:00.153009800 +0200	da46d03096a76e9d9ed9f51e3c614a29
data/_user1.cab	10082	2018-06-10 21:17:17.225509900 +0200	c76b2d4ffedb8adf1611616f77eaf5c4
data/venice.tr2	4213070	2018-06-10 21:17:00.153009800 +0200	d16aca39d8cf8aed74366f8fa1c0009a
data/wall.tr2	2986356	2018-06-10 21:17:00.154009300 +0200	da1e01683dad5fabbfff89c267b75b9e
data/xian.tr2	3173840	2018-06-10 21:17:00.154009300 +0200	fd8c45efc3f5e690edd0796d350a28ba
dec130.dll	98816	2018-06-10 21:17:13.270155800 +0200	a3a3379012c60dd882760cc47c5cbe5f
edec.dll	117248	2018-06-10 21:17:17.424563400 +0200	385a43ba3173c0617c3ce3f3ae0c302c
fmv/ancient.rpl	36931896	2018-06-10 21:17:00.156009200 +0200	8900a61895597eec87daa558b2a22805
fmv/crash.rpl	20387254	2018-06-10 21:17:00.156009200 +0200	0896c7e1600e7d841ac79762ba77b780
fmv/end.rpl	11242086	2018-06-10 21:17:00.157009200 +0200	3d60c928baa5a5211478e15e4a3e0ce2
fmv/jeep.rpl	21942472	2018-06-10 21:17:00.157009200 +0200	94d010cdbd108de01fdb8535314e77a3
fmv/landing.rpl	4452622	2018-06-10 21:17:00.158009100 +0200	71de2ea3664867d32ea135f3de7a7289
fmv/logo.rpl	15996067	2018-06-10 21:17:00.158009100 +0200	20be937db48b25b57bc88e9d47517905
fmv/modern.rpl	4765135	2018-06-10 21:17:00.159009400 +0200	a1c6f33399f5f9ae5fa41496e30cffad
fmv/ms.rpl	10552178	2018-06-10 21:17:00.159009400 +0200	fa6aa575354759a2a1c25c3f074ec961
installscript.vdf	474	2018-06-10 21:17:38.918675100 +0200	0fd8ca24cfe36e209ea105bf6f44a13b
msvcp90.dll	568832	2018-06-10 21:17:00.160010100 +0200	6de5c66e434a9c1729575763d891c6c2
msvcr90.dll	655872	2018-06-10 21:17:00.160010100 +0200	e7d91d008fe76423962b91c43c88e4eb
music/10.mp3	371650	2018-06-10 21:17:00.161009800 +0200	b2441816b0c394f40fa0d08c389e97ba
music/11.mp3	514435	2018-06-10 21:17:00.162009000 +0200	556ede9b43a5813c9befd13994e3f74d
music/12.mp3	281470	2018-06-10 21:17:00.162009000 +0200	e80bad5aad5a9509bab865e8d170586a
music/13.mp3	300675	2018-06-10 21:17:00.163009700 +0200	cb5181fafa18677d9bd48c24bfd95116
music/14.mp3	121334	2018-06-10 21:17:32.329973800 +0200	3ad9c80d0b6c802039e02dbf7297fd04
music/15.mp3	114755	2018-06-10 21:17:30.745702600 +0200	5071415a523739f2a5d71561b2da7e8a
music/16.mp3	151305	2018-06-10 21:17:39.117689100 +0200	c0df816acc94ac652efab064a0862b2f
music/17.mp3	298170	2018-06-10 21:17:00.163009700 +0200	f2fcff40b46e6adca42c6b38cddd49c2
music/18.mp3	95018	2018-06-10 21:17:32.577036400 +0200	506bdc7e6deaabcf5c74a4e4be0f12a4
music/19.mp3	94287	2018-06-10 21:17:40.254731400 +0200	2aa1567018e01f9f51a79ccc3cdfdb01
music/20.mp3	112562	2018-06-10 21:17:41.744808600 +0200	fa05a47f22a3a039317fb36e3c105797
music/21.mp3	142533	2018-06-10 21:17:31.886796000 +0200	75b1501a17f29d6af11f54fb4326b4f7
music/22.mp3	104521	2018-06-10 21:17:41.447795300 +0200	3e3a6806cb599a18cf39eac836ff2f66
music/23.mp3	543035	2018-06-10 21:17:00.164010000 +0200	7ed475391096b3e92a7e5fdbeff7170e
music/24.mp3	313846	2018-06-10 21:17:00.165009700 +0200	0d689db4cdbbc367d410dcdc3b39aec3
music/25.mp3	95018	2018-06-10 21:17:32.782969700 +0200	f8c3a67f1bad29dc66f365ed8ba97878
music/26.mp3	1678856	2018-06-10 21:17:00.166009600 +0200	e0d98e57f2f2cbf040461441ca7b9f38
music/27.mp3	3791190	2018-06-10 21:17:00.166009600 +0200	b335245fa47a420e83dd5a845deb006e
music/28.mp3	3769786	2018-06-10 21:17:00.166009600 +0200	7b390b1f0888702913bd9c74017fb990
music/29.mp3	5329149	2018-06-10 21:17:00.167008800 +0200	703b5a92dbff3fb18fcabac825535b5f
music/2.mp3	2781300	2018-06-10 21:17:00.164010000 +0200	9cef8b5de815f733c30472b2d0d9fac3
music/30.mp3	5883589	2018-06-10 21:17:00.168011600 +0200	8bf35bb99c707e1ba526ed226187137c
music/31.mp3	256524	2018-06-10 21:17:34.114242800 +0200	199652277e646dd2c8a42f6c3bca7611
music/32.mp3	157159	2018-06-10 21:17:39.414683500 +0200	bec33ad35664b42920254923d47d65f2
music/33.mp3	518601	2018-06-10 21:17:00.168011600 +0200	5ae8c081b62e24c18796bbf851e33fe5
music/34.mp3	1746788	2018-06-10 21:17:00.169009800 +0200	4fdb5b3f7aae6901329d6df3ea0181aa
music/35.mp3	641144	2018-06-10 21:17:00.169009800 +0200	da1809db76381487eb5deed4084a410a
music/36.mp3	5086685	2018-06-10 21:17:00.170009500 +0200	f7deee0a2c7634891b980cc1ea73e58b
music/37.mp3	398474	2018-06-10 21:17:00.170009500 +0200	ffe9c5e7a2b9f403202173b6cbe71197
music/38.mp3	374259	2018-06-10 21:17:00.171009700 +0200	cdb08f1dea5da94b0f8f3bb03b9dc2e4
music/39.mp3	482182	2018-06-10 21:17:00.171009700 +0200	53a6bcafe996b2e00b47213afe8b6a24
music/3.mp3	3677431	2018-06-10 21:17:00.167008800 +0200	80d92120c84f2002676b15591b9d00e5
music/40.mp3	577372	2018-06-10 21:17:00.172008900 +0200	027acf8c3ca73196705f4062b6b1d4a7
music/41.mp3	1896568	2018-06-10 21:17:00.173008900 +0200	4c26c1779d3f61828b637c16735b69cf
music/42.mp3	1075032	2018-06-10 21:17:00.173008900 +0200	a1b1a8ce48e74f1e5810db4df200a60c
music/43.mp3	149540	2018-06-10 21:17:36.192465700 +0200	9214317eb2bd1a7f4de62732fe84f03c
music/44.mp3	455254	2018-06-10 21:17:00.174009600 +0200	7353c1f113ea31d3ffd09943cc4dbdfa
music/45.mp3	327395	2018-06-10 21:17:00.174009600 +0200	facc5a77278692d408fca1ebed43c94e
music/46.mp3	402022	2018-06-10 21:17:00.175009300 +0200	4bc1029d8f8230539d19fc91d96469af
music/47.mp3	278234	2018-06-10 21:17:00.175009300 +0200	48074c4b3b3aeccbdabf309bda3e304d
music/48.mp3	5242230	2018-06-10 21:17:00.176008800 +0200	0821d9912f45dce57460adc8ee928fc3
music/49.mp3	2301036	2018-06-10 21:17:00.176008800 +0200	b67288276db58bf7223c1a50403cdffc
music/4.mp3	4355546	2018-06-10 21:17:00.172008900 +0200	a01ab274bf96602d3778ada03ea32d7b
music/50.mp3	248694	2018-06-10 21:17:37.481627000 +0200	5e07a4a9b27b3f69e2981745fc38d674
music/51.mp3	1330426	2018-06-10 21:17:00.177009800 +0200	8424a73c6d05b50ef9fd7e24a6097a62
music/52.mp3	322489	2018-06-10 21:17:00.177009800 +0200	fab5f6bb30d3c87bae8588ea3fd0d309
music/53.mp3	1576032	2018-06-10 21:17:00.178009500 +0200	d171545a15bcbdb7143ff4f0b765a007
music/54.mp3	6708465	2018-06-10 21:17:00.178009500 +0200	7dff3b601a27c0f2d89109da32fdf225
music/55.mp3	6713579	2018-06-10 21:17:00.179009500 +0200	38c01f8b22207f22bc187198aa6aa6f1
music/56.mp3	3383388	2018-06-10 21:17:00.179009500 +0200	002cdb7eddda03c94ccddac5107dc01b
music/57.mp3	724626	2018-06-10 21:17:00.180009700 +0200	2611d6d4b07b74811aa01a21bce8e0d0
music/58.mp3	701684	2018-06-10 21:17:00.180009700 +0200	731744483494f87aa298552f64ff993b
music/59.mp3	574032	2018-06-10 21:17:00.181009400 +0200	4902f766bfaac46b190e7bfed19104da
music/5.mp3	258925	2018-06-10 21:17:43.678047100 +0200	8489bbdafc1666d799c659017aeefa23
music/60.mp3	5321836	2018-06-10 21:17:00.181009400 +0200	d61ea4e80193f226b5550401aff94586
music/61.mp3	20489	2018-06-10 21:17:45.265142900 +0200	d6933ebd2fe5b80bf72426bb9a6d404f
music/6.mp3	232101	2018-06-10 21:17:39.672698900 +0200	712acfb3fe6d2f3b5458615d28b9c536
music/7.mp3	125720	2018-06-10 21:17:38.472646200 +0200	8a4047aea423952fccb9586da57400bd
music/8.mp3	123631	2018-06-10 21:17:45.462140400 +0200	3c52339795f1c1628cdaed6454b79eed
music/9.mp3	201310	2018-06-10 21:17:45.710137000 +0200	f7fe916bdcbce7bf823ecde91c17b8d7
readme.txt	19476	2018-06-10 21:17:38.572644900 +0200	f6ad9626fafbb4a6f46e39ae9ab13d11
sound.dll	26112	2018-06-10 21:17:38.671661700 +0200	5d0355849a06a2270c2880c4615d8cab
tomb2.exe	912896	2018-06-10 21:17:00.182009400 +0200	964f0c4e08ff44a905e8fc9a78f605dc
tombpc.dat	5340	2018-06-10 21:17:12.802033000 +0200	d48757da01f8642f1a3d82fae0fc99e4
winplay.dll	66048	2018-06-10 21:17:45.511139600 +0200	4ee5d4026f15c967ed3ae599885018b0
winsdec.dll	89600	2018-06-10 21:17:45.611138300 +0200	3e81974ab0a22b640b5a52b41d6a3913
winstr.dll	86016	2018-06-10 21:17:39.860714300 +0200	bd9397ee53c1dbe34d1b4fc168d8025e
