CD_ROM_XA

// Track 1
TRACK MODE2_FORM_MIX
NO COPY
DATAFILE "TOMB_RAIDER_2.bin" 28:04:40 // length in bytes: 295130240

// Track 2
TRACK AUDIO
NO COPY
NO PRE_EMPHASIS
TWO_CHANNEL_AUDIO
SILENCE 00:02:00
FILE "TOMB_RAIDER_2.bin" #295130240 0 01:27:08
START 00:02:00

// Track 3
TRACK AUDIO
NO COPY
NO PRE_EMPHASIS
TWO_CHANNEL_AUDIO
FILE "TOMB_RAIDER_2.bin" #295130240 01:27:08 01:56:43
START 00:00:26

// Track 4
TRACK AUDIO
NO COPY
NO PRE_EMPHASIS
TWO_CHANNEL_AUDIO
FILE "TOMB_RAIDER_2.bin" #295130240 03:23:51 02:17:53
START 00:00:08

// Track 5
TRACK AUDIO
NO COPY
NO PRE_EMPHASIS
TWO_CHANNEL_AUDIO
FILE "TOMB_RAIDER_2.bin" #295130240 05:41:29 00:09:64
START 00:00:15

// Track 6
TRACK AUDIO
NO COPY
NO PRE_EMPHASIS
TWO_CHANNEL_AUDIO
FILE "TOMB_RAIDER_2.bin" #295130240 05:51:18 00:08:65
START 00:00:11

// Track 7
TRACK AUDIO
NO COPY
NO PRE_EMPHASIS
TWO_CHANNEL_AUDIO
FILE "TOMB_RAIDER_2.bin" #295130240 06:00:08 00:07:17
START 00:00:18

// Track 8
TRACK AUDIO
NO COPY
NO PRE_EMPHASIS
TWO_CHANNEL_AUDIO
FILE "TOMB_RAIDER_2.bin" #295130240 06:07:25 00:06:66
START 00:00:02

// Track 9
TRACK AUDIO
NO COPY
NO PRE_EMPHASIS
TWO_CHANNEL_AUDIO
FILE "TOMB_RAIDER_2.bin" #295130240 06:14:16 00:07:63
START 00:00:13

// Track 10
TRACK AUDIO
NO COPY
NO PRE_EMPHASIS
TWO_CHANNEL_AUDIO
FILE "TOMB_RAIDER_2.bin" #295130240 06:22:04 00:13:27
START 00:00:25

// Track 11
TRACK AUDIO
NO COPY
NO PRE_EMPHASIS
TWO_CHANNEL_AUDIO
FILE "TOMB_RAIDER_2.bin" #295130240 06:35:31 00:18:05
START 00:00:22

// Track 12
TRACK AUDIO
NO COPY
NO PRE_EMPHASIS
TWO_CHANNEL_AUDIO
FILE "TOMB_RAIDER_2.bin" #295130240 06:53:36 00:10:36
START 00:00:02

// Track 13
TRACK AUDIO
NO COPY
NO PRE_EMPHASIS
TWO_CHANNEL_AUDIO
FILE "TOMB_RAIDER_2.bin" #295130240 07:03:72 00:11:00
START 00:00:04

// Track 14
TRACK AUDIO
NO COPY
NO PRE_EMPHASIS
TWO_CHANNEL_AUDIO
FILE "TOMB_RAIDER_2.bin" #295130240 07:14:72 00:06:69
START 00:00:13

// Track 15
TRACK AUDIO
NO COPY
NO PRE_EMPHASIS
TWO_CHANNEL_AUDIO
FILE "TOMB_RAIDER_2.bin" #295130240 07:21:66 00:07:16
START 00:00:20

// Track 16
TRACK AUDIO
NO COPY
NO PRE_EMPHASIS
TWO_CHANNEL_AUDIO
FILE "TOMB_RAIDER_2.bin" #295130240 07:29:07 00:06:66
START 00:00:05

// Track 17
TRACK AUDIO
NO COPY
NO PRE_EMPHASIS
TWO_CHANNEL_AUDIO
FILE "TOMB_RAIDER_2.bin" #295130240 07:35:73 00:11:04
START 00:00:16

// Track 18
TRACK AUDIO
NO COPY
NO PRE_EMPHASIS
TWO_CHANNEL_AUDIO
FILE "TOMB_RAIDER_2.bin" #295130240 07:47:02 00:07:10
START 00:00:14

// Track 19
TRACK AUDIO
NO COPY
NO PRE_EMPHASIS
TWO_CHANNEL_AUDIO
FILE "TOMB_RAIDER_2.bin" #295130240 07:54:12 00:06:70
START 00:00:05

// Track 20
TRACK AUDIO
NO COPY
NO PRE_EMPHASIS
TWO_CHANNEL_AUDIO
FILE "TOMB_RAIDER_2.bin" #295130240 08:01:07 00:07:03
START 00:00:11

// Track 21
TRACK AUDIO
NO COPY
NO PRE_EMPHASIS
TWO_CHANNEL_AUDIO
FILE "TOMB_RAIDER_2.bin" #295130240 08:08:10 00:07:03
START 00:00:09

// Track 22
TRACK AUDIO
NO COPY
NO PRE_EMPHASIS
TWO_CHANNEL_AUDIO
FILE "TOMB_RAIDER_2.bin" #295130240 08:15:13 00:06:68
START 00:00:07

// Track 23
TRACK AUDIO
NO COPY
NO PRE_EMPHASIS
TWO_CHANNEL_AUDIO
FILE "TOMB_RAIDER_2.bin" #295130240 08:22:06 00:18:56
START 00:00:15

// Track 24
TRACK AUDIO
NO COPY
NO PRE_EMPHASIS
TWO_CHANNEL_AUDIO
FILE "TOMB_RAIDER_2.bin" #295130240 08:40:62 00:11:01
START 00:00:08

// Track 25
TRACK AUDIO
NO COPY
NO PRE_EMPHASIS
TWO_CHANNEL_AUDIO
FILE "TOMB_RAIDER_2.bin" #295130240 08:51:63 00:07:05
START 00:00:08

// Track 26
TRACK AUDIO
NO COPY
NO PRE_EMPHASIS
TWO_CHANNEL_AUDIO
FILE "TOMB_RAIDER_2.bin" #295130240 08:58:68 00:53:46
START 00:00:04

// Track 27
TRACK AUDIO
NO COPY
NO PRE_EMPHASIS
TWO_CHANNEL_AUDIO
FILE "TOMB_RAIDER_2.bin" #295130240 09:52:39 01:01:73
START 00:00:23

// Track 28
TRACK AUDIO
NO COPY
NO PRE_EMPHASIS
TWO_CHANNEL_AUDIO
FILE "TOMB_RAIDER_2.bin" #295130240 10:54:37 01:23:02
START 00:00:11

// Track 29
TRACK AUDIO
NO COPY
NO PRE_EMPHASIS
TWO_CHANNEL_AUDIO
FILE "TOMB_RAIDER_2.bin" #295130240 12:17:39 01:08:26
START 00:00:09

// Track 30
TRACK AUDIO
NO COPY
NO PRE_EMPHASIS
TWO_CHANNEL_AUDIO
FILE "TOMB_RAIDER_2.bin" #295130240 13:25:65 01:35:59
START 00:00:14

// Track 31
TRACK AUDIO
NO COPY
NO PRE_EMPHASIS
TWO_CHANNEL_AUDIO
FILE "TOMB_RAIDER_2.bin" #295130240 15:01:49 00:09:57
START 00:00:22

// Track 32
TRACK AUDIO
NO COPY
NO PRE_EMPHASIS
TWO_CHANNEL_AUDIO
FILE "TOMB_RAIDER_2.bin" #295130240 15:11:31 00:06:57
START 00:00:22

// Track 33
TRACK AUDIO
NO COPY
NO PRE_EMPHASIS
TWO_CHANNEL_AUDIO
FILE "TOMB_RAIDER_2.bin" #295130240 15:18:13 00:18:35
START 00:00:13

// Track 34
TRACK AUDIO
NO COPY
NO PRE_EMPHASIS
TWO_CHANNEL_AUDIO
FILE "TOMB_RAIDER_2.bin" #295130240 15:36:48 00:56:31
START 00:00:13

// Track 35
TRACK AUDIO
NO COPY
NO PRE_EMPHASIS
TWO_CHANNEL_AUDIO
FILE "TOMB_RAIDER_2.bin" #295130240 16:33:04 00:21:74
START 00:00:16

// Track 36
TRACK AUDIO
NO COPY
NO PRE_EMPHASIS
TWO_CHANNEL_AUDIO
FILE "TOMB_RAIDER_2.bin" #295130240 16:55:03 02:40:70
START 00:00:08

// Track 37
TRACK AUDIO
NO COPY
NO PRE_EMPHASIS
TWO_CHANNEL_AUDIO
FILE "TOMB_RAIDER_2.bin" #295130240 19:35:73 00:14:18
START 00:00:07

// Track 38
TRACK AUDIO
NO COPY
NO PRE_EMPHASIS
TWO_CHANNEL_AUDIO
FILE "TOMB_RAIDER_2.bin" #295130240 19:50:16 00:13:31
START 00:00:02

// Track 39
TRACK AUDIO
NO COPY
NO PRE_EMPHASIS
TWO_CHANNEL_AUDIO
FILE "TOMB_RAIDER_2.bin" #295130240 20:03:47 00:16:64
START 00:00:03

// Track 40
TRACK AUDIO
NO COPY
NO PRE_EMPHASIS
TWO_CHANNEL_AUDIO
FILE "TOMB_RAIDER_2.bin" #295130240 20:20:36 00:19:57
START 00:00:02

// Track 41
TRACK AUDIO
NO COPY
NO PRE_EMPHASIS
TWO_CHANNEL_AUDIO
FILE "TOMB_RAIDER_2.bin" #295130240 20:40:18 01:00:70
START 00:00:08

// Track 42
TRACK AUDIO
NO COPY
NO PRE_EMPHASIS
TWO_CHANNEL_AUDIO
FILE "TOMB_RAIDER_2.bin" #295130240 21:41:13 00:35:29
START 00:00:19

// Track 43
TRACK AUDIO
NO COPY
NO PRE_EMPHASIS
TWO_CHANNEL_AUDIO
FILE "TOMB_RAIDER_2.bin" #295130240 22:16:42 00:06:44
START 00:00:20

// Track 44
TRACK AUDIO
NO COPY
NO PRE_EMPHASIS
TWO_CHANNEL_AUDIO
FILE "TOMB_RAIDER_2.bin" #295130240 22:23:11 00:15:70
START 00:00:05

// Track 45
TRACK AUDIO
NO COPY
NO PRE_EMPHASIS
TWO_CHANNEL_AUDIO
FILE "TOMB_RAIDER_2.bin" #295130240 22:39:06 00:12:00
START 00:00:09

// Track 46
TRACK AUDIO
NO COPY
NO PRE_EMPHASIS
TWO_CHANNEL_AUDIO
FILE "TOMB_RAIDER_2.bin" #295130240 22:51:06 00:14:14
START 00:00:07

// Track 47
TRACK AUDIO
NO COPY
NO PRE_EMPHASIS
TWO_CHANNEL_AUDIO
FILE "TOMB_RAIDER_2.bin" #295130240 23:05:20 00:10:39
START 00:00:20

// Track 48
TRACK AUDIO
NO COPY
NO PRE_EMPHASIS
TWO_CHANNEL_AUDIO
FILE "TOMB_RAIDER_2.bin" #295130240 23:15:59 02:45:16
START 00:00:14

// Track 49
TRACK AUDIO
NO COPY
NO PRE_EMPHASIS
TWO_CHANNEL_AUDIO
FILE "TOMB_RAIDER_2.bin" #295130240 26:01:00 01:13:24
START 00:00:06

// Track 50
TRACK AUDIO
NO COPY
NO PRE_EMPHASIS
TWO_CHANNEL_AUDIO
FILE "TOMB_RAIDER_2.bin" #295130240 27:14:24 00:09:38
START 00:00:07

// Track 51
TRACK AUDIO
NO COPY
NO PRE_EMPHASIS
TWO_CHANNEL_AUDIO
FILE "TOMB_RAIDER_2.bin" #295130240 27:23:62 00:44:03
START 00:00:16

// Track 52
TRACK AUDIO
NO COPY
NO PRE_EMPHASIS
TWO_CHANNEL_AUDIO
FILE "TOMB_RAIDER_2.bin" #295130240 28:07:65 00:11:68
START 00:00:21

// Track 53
TRACK AUDIO
NO COPY
NO PRE_EMPHASIS
TWO_CHANNEL_AUDIO
FILE "TOMB_RAIDER_2.bin" #295130240 28:19:58 00:51:05
START 00:00:13

// Track 54
TRACK AUDIO
NO COPY
NO PRE_EMPHASIS
TWO_CHANNEL_AUDIO
FILE "TOMB_RAIDER_2.bin" #295130240 29:10:63 01:12:58
START 00:00:14

// Track 55
TRACK AUDIO
NO COPY
NO PRE_EMPHASIS
TWO_CHANNEL_AUDIO
FILE "TOMB_RAIDER_2.bin" #295130240 30:23:46 02:21:10
START 00:00:22

// Track 56
TRACK AUDIO
NO COPY
NO PRE_EMPHASIS
TWO_CHANNEL_AUDIO
FILE "TOMB_RAIDER_2.bin" #295130240 32:44:56 01:47:42
START 00:00:04

// Track 57
TRACK AUDIO
NO COPY
NO PRE_EMPHASIS
TWO_CHANNEL_AUDIO
FILE "TOMB_RAIDER_2.bin" #295130240 34:32:23 00:25:50
START 00:00:15

// Track 58
TRACK AUDIO
NO COPY
NO PRE_EMPHASIS
TWO_CHANNEL_AUDIO
FILE "TOMB_RAIDER_2.bin" #295130240 34:57:73 00:23:43
START 00:00:10

// Track 59
TRACK AUDIO
NO COPY
NO PRE_EMPHASIS
TWO_CHANNEL_AUDIO
FILE "TOMB_RAIDER_2.bin" #295130240 35:21:41 00:19:46
START 00:00:16

// Track 60
TRACK AUDIO
NO COPY
NO PRE_EMPHASIS
TWO_CHANNEL_AUDIO
FILE "TOMB_RAIDER_2.bin" #295130240 35:41:12 02:48:67
START 00:00:24

// Track 61
TRACK AUDIO
NO COPY
NO PRE_EMPHASIS
TWO_CHANNEL_AUDIO
FILE "TOMB_RAIDER_2.bin" #295130240 38:30:04 00:17:58
START 00:00:04
