CD_ROM_XA

// Track 1
TRACK MODE2_FORM_MIX
NO COPY
DATAFILE "TOMB2JP.bin" 23:20:31 // length in bytes: 245352416

// Track 2
TRACK AUDIO
NO COPY
NO PRE_EMPHASIS
TWO_CHANNEL_AUDIO
SILENCE 00:02:00
FILE "TOMB2JP.bin" #245352416 0 01:27:11
START 00:02:00

// Track 3
TRACK AUDIO
NO COPY
NO PRE_EMPHASIS
TWO_CHANNEL_AUDIO
FILE "TOMB2JP.bin" #245352416 01:27:11 01:56:41
START 00:00:23

// Track 4
TRACK AUDIO
NO COPY
NO PRE_EMPHASIS
TWO_CHANNEL_AUDIO
FILE "TOMB2JP.bin" #245352416 03:23:52 02:17:53
START 00:00:06

// Track 5
TRACK AUDIO
NO COPY
NO PRE_EMPHASIS
TWO_CHANNEL_AUDIO
FILE "TOMB2JP.bin" #245352416 05:41:30 00:10:11
START 00:00:13

// Track 6
TRACK AUDIO
NO COPY
NO PRE_EMPHASIS
TWO_CHANNEL_AUDIO
FILE "TOMB2JP.bin" #245352416 05:51:41 00:08:43
START 00:00:08

// Track 7
TRACK AUDIO
NO COPY
NO PRE_EMPHASIS
TWO_CHANNEL_AUDIO
FILE "TOMB2JP.bin" #245352416 06:00:09 00:06:66
START 00:00:03

// Track 8
TRACK AUDIO
NO COPY
NO PRE_EMPHASIS
TWO_CHANNEL_AUDIO
FILE "TOMB2JP.bin" #245352416 06:07:00 00:06:64
START 00:00:13

// Track 9
TRACK AUDIO
NO COPY
NO PRE_EMPHASIS
TWO_CHANNEL_AUDIO
FILE "TOMB2JP.bin" #245352416 06:13:64 00:07:49
START 00:00:25

// Track 10
TRACK AUDIO
NO COPY
NO PRE_EMPHASIS
TWO_CHANNEL_AUDIO
FILE "TOMB2JP.bin" #245352416 06:21:38 00:13:02
START 00:00:18

// Track 11
TRACK AUDIO
NO COPY
NO PRE_EMPHASIS
TWO_CHANNEL_AUDIO
FILE "TOMB2JP.bin" #245352416 06:34:40 00:17:36
START 00:00:20

// Track 12
TRACK AUDIO
NO COPY
NO PRE_EMPHASIS
TWO_CHANNEL_AUDIO
FILE "TOMB2JP.bin" #245352416 06:52:01 00:09:67
START 00:00:12

// Track 13
TRACK AUDIO
NO COPY
NO PRE_EMPHASIS
TWO_CHANNEL_AUDIO
FILE "TOMB2JP.bin" #245352416 07:01:68 00:10:38
START 00:00:06

// Track 14
TRACK AUDIO
NO COPY
NO PRE_EMPHASIS
TWO_CHANNEL_AUDIO
FILE "TOMB2JP.bin" #245352416 07:12:31 00:07:11
START 00:00:21

// Track 15
TRACK AUDIO
NO COPY
NO PRE_EMPHASIS
TWO_CHANNEL_AUDIO
FILE "TOMB2JP.bin" #245352416 07:19:42 00:06:71
START 00:00:12

// Track 16
TRACK AUDIO
NO COPY
NO PRE_EMPHASIS
TWO_CHANNEL_AUDIO
FILE "TOMB2JP.bin" #245352416 07:26:38 00:06:71
START 00:00:17

// Track 17
TRACK AUDIO
NO COPY
NO PRE_EMPHASIS
TWO_CHANNEL_AUDIO
FILE "TOMB2JP.bin" #245352416 07:33:34 00:10:40
START 00:00:23

// Track 18
TRACK AUDIO
NO COPY
NO PRE_EMPHASIS
TWO_CHANNEL_AUDIO
FILE "TOMB2JP.bin" #245352416 07:43:74 00:06:69
START 00:00:19

// Track 19
TRACK AUDIO
NO COPY
NO PRE_EMPHASIS
TWO_CHANNEL_AUDIO
FILE "TOMB2JP.bin" #245352416 07:50:68 00:07:18
START 00:00:26

// Track 20
TRACK AUDIO
NO COPY
NO PRE_EMPHASIS
TWO_CHANNEL_AUDIO
FILE "TOMB2JP.bin" #245352416 07:58:11 00:06:68
START 00:00:10

// Track 21
TRACK AUDIO
NO COPY
NO PRE_EMPHASIS
TWO_CHANNEL_AUDIO
FILE "TOMB2JP.bin" #245352416 08:05:04 00:07:13
START 00:00:20

// Track 22
TRACK AUDIO
NO COPY
NO PRE_EMPHASIS
TWO_CHANNEL_AUDIO
FILE "TOMB2JP.bin" #245352416 08:12:17 00:06:72
START 00:00:10

// Track 23
TRACK AUDIO
NO COPY
NO PRE_EMPHASIS
TWO_CHANNEL_AUDIO
FILE "TOMB2JP.bin" #245352416 08:19:14 00:18:40
START 00:00:15

// Track 24
TRACK AUDIO
NO COPY
NO PRE_EMPHASIS
TWO_CHANNEL_AUDIO
FILE "TOMB2JP.bin" #245352416 08:37:54 00:11:23
START 00:00:24

// Track 25
TRACK AUDIO
NO COPY
NO PRE_EMPHASIS
TWO_CHANNEL_AUDIO
FILE "TOMB2JP.bin" #245352416 08:49:02 00:06:64
START 00:00:02

// Track 26
TRACK AUDIO
NO COPY
NO PRE_EMPHASIS
TWO_CHANNEL_AUDIO
FILE "TOMB2JP.bin" #245352416 08:55:66 00:53:65
START 00:00:14

// Track 27
TRACK AUDIO
NO COPY
NO PRE_EMPHASIS
TWO_CHANNEL_AUDIO
FILE "TOMB2JP.bin" #245352416 09:49:56 02:00:11
START 00:00:14

// Track 28
TRACK AUDIO
NO COPY
NO PRE_EMPHASIS
TWO_CHANNEL_AUDIO
FILE "TOMB2JP.bin" #245352416 11:49:67 01:59:53
START 00:00:14

// Track 29
TRACK AUDIO
NO COPY
NO PRE_EMPHASIS
TWO_CHANNEL_AUDIO
FILE "TOMB2JP.bin" #245352416 13:49:45 02:48:48
START 00:00:19

// Track 30
TRACK AUDIO
NO COPY
NO PRE_EMPHASIS
TWO_CHANNEL_AUDIO
FILE "TOMB2JP.bin" #245352416 16:38:18 03:05:59
START 00:00:05

// Track 31
TRACK AUDIO
NO COPY
NO PRE_EMPHASIS
TWO_CHANNEL_AUDIO
FILE "TOMB2JP.bin" #245352416 19:44:02 00:09:58
START 00:00:06

// Track 32
TRACK AUDIO
NO COPY
NO PRE_EMPHASIS
TWO_CHANNEL_AUDIO
FILE "TOMB2JP.bin" #245352416 19:53:60 00:06:40
START 00:00:05

// Track 33
TRACK AUDIO
NO COPY
NO PRE_EMPHASIS
TWO_CHANNEL_AUDIO
FILE "TOMB2JP.bin" #245352416 20:00:25 00:18:46
START 00:00:13

// Track 34
TRACK AUDIO
NO COPY
NO PRE_EMPHASIS
TWO_CHANNEL_AUDIO
FILE "TOMB2JP.bin" #245352416 20:18:71 00:56:31
START 00:00:02

// Track 35
TRACK AUDIO
NO COPY
NO PRE_EMPHASIS
TWO_CHANNEL_AUDIO
FILE "TOMB2JP.bin" #245352416 21:15:27 00:21:65
START 00:00:05

// Track 36
TRACK AUDIO
NO COPY
NO PRE_EMPHASIS
TWO_CHANNEL_AUDIO
FILE "TOMB2JP.bin" #245352416 21:37:17 02:40:57
START 00:00:06

// Track 37
TRACK AUDIO
NO COPY
NO PRE_EMPHASIS
TWO_CHANNEL_AUDIO
FILE "TOMB2JP.bin" #245352416 24:17:74 00:14:20
START 00:00:18

// Track 38
TRACK AUDIO
NO COPY
NO PRE_EMPHASIS
TWO_CHANNEL_AUDIO
FILE "TOMB2JP.bin" #245352416 24:32:19 00:13:35
START 00:00:11

// Track 39
TRACK AUDIO
NO COPY
NO PRE_EMPHASIS
TWO_CHANNEL_AUDIO
FILE "TOMB2JP.bin" #245352416 24:45:54 00:16:45
START 00:00:08

// Track 40
TRACK AUDIO
NO COPY
NO PRE_EMPHASIS
TWO_CHANNEL_AUDIO
FILE "TOMB2JP.bin" #245352416 25:02:24 00:19:68
START 00:00:26

// Track 41
TRACK AUDIO
NO COPY
NO PRE_EMPHASIS
TWO_CHANNEL_AUDIO
FILE "TOMB2JP.bin" #245352416 25:22:17 01:01:25
START 00:00:21

// Track 42
TRACK AUDIO
NO COPY
NO PRE_EMPHASIS
TWO_CHANNEL_AUDIO
FILE "TOMB2JP.bin" #245352416 26:23:42 00:35:14
START 00:00:02

// Track 43
TRACK AUDIO
NO COPY
NO PRE_EMPHASIS
TWO_CHANNEL_AUDIO
FILE "TOMB2JP.bin" #245352416 26:58:56 00:06:43
START 00:00:18

// Track 44
TRACK AUDIO
NO COPY
NO PRE_EMPHASIS
TWO_CHANNEL_AUDIO
FILE "TOMB2JP.bin" #245352416 27:05:24 00:15:58
START 00:00:04

// Track 45
TRACK AUDIO
NO COPY
NO PRE_EMPHASIS
TWO_CHANNEL_AUDIO
FILE "TOMB2JP.bin" #245352416 27:21:07 00:12:05
START 00:00:20

// Track 46
TRACK AUDIO
NO COPY
NO PRE_EMPHASIS
TWO_CHANNEL_AUDIO
FILE "TOMB2JP.bin" #245352416 27:33:12 00:14:20
START 00:00:13

// Track 47
TRACK AUDIO
NO COPY
NO PRE_EMPHASIS
TWO_CHANNEL_AUDIO
FILE "TOMB2JP.bin" #245352416 27:47:32 00:10:35
START 00:00:20

// Track 48
TRACK AUDIO
NO COPY
NO PRE_EMPHASIS
TWO_CHANNEL_AUDIO
FILE "TOMB2JP.bin" #245352416 27:57:67 02:45:20
START 00:00:18

// Track 49
TRACK AUDIO
NO COPY
NO PRE_EMPHASIS
TWO_CHANNEL_AUDIO
FILE "TOMB2JP.bin" #245352416 30:43:12 01:13:13
START 00:00:06

// Track 50
TRACK AUDIO
NO COPY
NO PRE_EMPHASIS
TWO_CHANNEL_AUDIO
FILE "TOMB2JP.bin" #245352416 31:56:25 00:09:60
START 00:00:18

// Track 51
TRACK AUDIO
NO COPY
NO PRE_EMPHASIS
TWO_CHANNEL_AUDIO
FILE "TOMB2JP.bin" #245352416 32:06:10 00:43:63
START 00:00:05

// Track 52
TRACK AUDIO
NO COPY
NO PRE_EMPHASIS
TWO_CHANNEL_AUDIO
FILE "TOMB2JP.bin" #245352416 32:49:73 00:11:68
START 00:00:25

// Track 53
TRACK AUDIO
NO COPY
NO PRE_EMPHASIS
TWO_CHANNEL_AUDIO
FILE "TOMB2JP.bin" #245352416 33:01:66 00:51:17
START 00:00:17

// Track 54
TRACK AUDIO
NO COPY
NO PRE_EMPHASIS
TWO_CHANNEL_AUDIO
FILE "TOMB2JP.bin" #245352416 33:53:08 03:31:31
START 00:00:06

// Track 55
TRACK AUDIO
NO COPY
NO PRE_EMPHASIS
TWO_CHANNEL_AUDIO
FILE "TOMB2JP.bin" #245352416 37:24:39 03:31:61
START 00:00:19

// Track 56
TRACK AUDIO
NO COPY
NO PRE_EMPHASIS
TWO_CHANNEL_AUDIO
FILE "TOMB2JP.bin" #245352416 40:56:25 01:47:43
START 00:00:15

// Track 57
TRACK AUDIO
NO COPY
NO PRE_EMPHASIS
TWO_CHANNEL_AUDIO
FILE "TOMB2JP.bin" #245352416 42:43:68 00:25:65
START 00:00:25

// Track 58
TRACK AUDIO
NO COPY
NO PRE_EMPHASIS
TWO_CHANNEL_AUDIO
FILE "TOMB2JP.bin" #245352416 43:09:58 00:23:32
START 00:00:05

// Track 59
TRACK AUDIO
NO COPY
NO PRE_EMPHASIS
TWO_CHANNEL_AUDIO
FILE "TOMB2JP.bin" #245352416 43:33:15 00:19:50
START 00:00:16

// Track 60
TRACK AUDIO
NO COPY
NO PRE_EMPHASIS
TWO_CHANNEL_AUDIO
FILE "TOMB2JP.bin" #245352416 43:52:65 02:48:54
START 00:00:20

// Track 61
TRACK AUDIO
NO COPY
NO PRE_EMPHASIS
TWO_CHANNEL_AUDIO
FILE "TOMB2JP.bin" #245352416 46:41:44 00:17:67
START 00:00:13
