File	Size	Timestamp	MD5 Hash
data/assault.psx	1568632	1997-11-02 08:58:04 +0100	72d2d018a5508d32b64cdcabdbedb163
data/boat.psx	2017538	1997-11-02 08:59:34 +0100	bceb4129eae7411022917e279d202ce2
data/catacomb.psx	1880628	1997-11-02 09:09:04 +0100	31b5aeab797699416cbf2f58114002ca
data/cut1.psx	952800	1997-11-02 09:13:18 +0100	3d2bc4574d4ba7187b7f7e89d260b8c2
data/cut2.psx	1098878	1997-11-02 09:13:32 +0100	0ec9f13d5a3c9e09e504901c21e59102
data/cut3.psx	1288924	1997-11-02 09:13:50 +0100	eb8dd9b9f0de0e6575fa9617b3070221
data/cut4.psx	1116968	1997-11-02 09:14:04 +0100	fceaa62c8b80cea3debd266344de0670
data/deck.psx	1970742	1997-11-02 09:06:38 +0100	48e46059eb6cf0ae89793281b6af7a45
data/emprtomb.psx	2104252	1997-11-02 09:10:46 +0100	6856d52603601ab19d3bd108aeee6ce0
data/floating.psx	2081348	1997-11-02 09:11:40 +0100	50a5f2ed5d4e05b0a07e927308bccb7f
data/house.psx	1889386	1997-11-02 09:13:04 +0100	ad8b28c921b1d3ff3bc3ae490d81d325
data/icecave.psx	1990512	1997-11-02 09:09:54 +0100	3b284f644c51aca3fa20b89d110adcdc
data/kanji.psx	40964	1997-11-03 06:24:48 +0100	8db452bbf848ea37f3116cd9905b54ce
data/keel.psx	2016768	1997-11-02 09:04:56 +0100	3ce5d8baec75f2521aa0a4214028fb1d
data/living.psx	1811102	1997-11-02 09:05:46 +0100	9fe3ff2df311ca98c6491587f3fdbdfd
data/monastry.psx	2123446	1997-11-02 09:08:18 +0100	8324af4dc3083a07b90d5cb07550c4b7
data/opera.psx	2063540	1997-11-02 09:01:22 +0100	985413d8c7fcc7a6976a13ca37dac99f
data/platform.psx	1995728	1997-11-02 09:03:18 +0100	f0daddaff60318c917138c19722c8d29
data/rig.psx	1952874	1997-11-02 09:02:14 +0100	1c0ab6ac07f8eec4663012f70c7ad476
data/skidoo.psx	1984560	1997-11-02 09:07:24 +0100	1f0ce641e013891a50dc662473f37826
data/title.psx	148698	1997-11-02 08:57:28 +0100	b6f092d455d174f9b34cb46ff0c1c26a
data/tombpsx.dat	7334	1997-11-03 08:09:48 +0100	e24ffafe5356a472b623601f8bf1aeda
data/unwater.psx	1786858	1997-11-02 09:03:58 +0100	533c52f8d720fdf716bbdd59fb72281f
data/venice.psx	2084060	1997-11-02 09:00:26 +0100	2f9495b9ee7fac984d2c1453ab66f66a
data/wall.psx	1664198	1997-11-02 08:58:42 +0100	891c8ad5acd7b6d379c4fced5bd634a4
data/xian.psx	1751496	1997-11-02 09:12:24 +0100	ddb709ed85a3cb3fb8935241bd30b10c
fmv/ancient.fmv	44810240	1997-09-22 07:46:56 +0200	###### Input/Output Error ######
fmv/crash.fmv	31342592	1997-10-04 15:38:16 +0200	###### Input/Output Error ######
fmv/end.fmv	12664832	1997-10-04 13:29:30 +0200	###### Input/Output Error ######
fmv/jeep.fmv	38008832	1997-09-22 06:39:38 +0200	###### Input/Output Error ######
fmv/landing.fmv	7487488	1997-10-03 12:31:06 +0200	###### Input/Output Error ######
fmv/logo.fmv	9027584	1997-09-11 10:58:52 +0200	###### Input/Output Error ######
fmv/modern.fmv	6455296	1997-09-22 07:48:34 +0200	###### Input/Output Error ######
fmv/ms.fmv	20283392	1997-09-22 07:48:04 +0200	###### Input/Output Error ######
fmv/victor.fmv	2027520	1997-10-08 05:03:18 +0200	###### Input/Output Error ######
pix/china.raw	55551	1997-10-07 12:22:06 +0200	00bc20f876cabb4b50d9bf029664ce70
pix/credit01.raw	19703	1997-10-10 16:59:46 +0200	54926bdab84c985cc4e761bf8a5a5788
pix/credit02.raw	24836	1997-10-10 16:59:54 +0200	7eb60258705fd863a4350be20062c415
pix/credit03.raw	18283	1997-10-10 17:00:00 +0200	53ffed9c189a06ed55382735f45194f1
pix/credit04.raw	19108	1997-10-10 17:00:04 +0200	29973f2347ca9b0b71efdf260d582304
pix/credit05.raw	22492	1997-10-10 17:00:10 +0200	e40e3625b7703cb80972911b39421ea2
pix/credit06.raw	23775	1997-10-10 17:00:16 +0200	be1635db7fb0eecea872d9839f17f0bb
pix/credit07.raw	21570	1997-10-10 17:00:22 +0200	22363fce8163dac0e2694e8e6ec6d557
pix/credit08.raw	19469	1997-10-10 17:00:30 +0200	dd6c58a30291acdfb1f2ba8058116c00
pix/credit09.raw	2918	1997-10-10 17:00:36 +0200	332fac211c91180500ea110489e231e8
pixjap/legaljap.raw	49838	1997-10-08 06:47:54 +0200	05910a8dc44811a89c079e3b1a78f641
pixjap/titlejap.raw	88195	1997-10-07 12:25:02 +0200	34ead27c9a5b9d85e2d56f33edc461ec
pix/mansion.raw	70039	1997-10-09 18:32:34 +0200	0507e862c5909ca4071910c9bf127eb6
pix/rig.raw	63098	1997-10-07 12:24:24 +0200	ed3ebcceb23d7edd4d4a4f9d029bb6d8
pix/tibet.raw	67241	1997-10-07 12:24:40 +0200	e1cf34019830177c8fc35890a0723934
pix/titan.raw	25498	1997-10-07 12:24:50 +0200	b56c9a83f2944ba0749110263510056b
pix/venice.raw	70345	1997-10-07 12:25:50 +0200	7f4440855dfffbce7a2473e7618c24a7
pix/warning.raw	27048	1997-09-16 08:01:28 +0200	07f57a9d8a3f4983d2b8afa1a49d98b7
slps_012.00	501760	1997-11-03 12:17:12 +0100	152a9ca810eff57f8b5e8813b62bdf89
system.cnf	68	1997-11-01 02:22:26 +0100	abbe62f2271a826ca162fd05bed68592
