File	Size	Timestamp	MD5 Hash
tomb2.exe	912896	1997-12-10 14:36:22 +0100  	26f4846fe355382534d3404803bced1c
tr2-faq.html	19478	1998-01-16 15:46:08 +0100  	903e3b85dcc07984ce178242ed8c67aa
tr2p1readme.rtf	2963	1998-01-16 15:52:54 +0100  	be08c1b98cbe87112c3c176f3d80c0c1
tr2p1readme.txt	1622	1998-01-16 16:50:52 +0100  	c75fd2d47f60d2c85594709fb69e7974
tr2readme1_1a.rtf	30687	1998-01-16 15:56:10 +0100  	b910af2e4269303d659d280b581301f8
