{
	"source":           "daren_k",
	"hardcoded_resolutions": [
		"320x200",
		"640x480"
	],
	"disc_label":       "TOMBENG",
	"disc_track1_size":  178448384,
	"disc_tracks":       10,
	"latest_timestamp": "1996-10-31 11:55:06 +0100	install.exe"
}
